multiexchanger/dataExchange.vcd
$date
     Apr 22, 2017       21:40:34
$end

$version
 SystemC 2.3.1-Accellera --- Feb 19 2017 21:56:29
$end

$timescale
     1 ps
$end

$scope module SystemC $end
$var wire    8  aaaaa  inb [7:0]  $end
$var wire    8  aaaab  oub [7:0]  $end
$var wire   10  aaaac  adb [9:0]  $end
$var wire    1  aaaad  cs       $end
$var wire    1  aaaae  rwb       $end
$upscope $end
$enddefinitions  $end

$comment
All initial values are dumped below at time 0 sec = 0 timescale units.
$end

$dumpvars
bXXXXXXXX aaaaa
bXXXXXXXX aaaab
bXXXXXXXXXX aaaac
xaaaad
xaaaae
$end

#90000
b111 aaaaa
b1001111 aaaac
1aaaad
0aaaae

#93000
b100 aaaaa
b1010000 aaaac

#96000
b1010001 aaaac

#99000
b111 aaaaa
b1010010 aaaac

#102000
b101 aaaaa
b1010011 aaaac

#105000
b1010100 aaaac

#108000
b11 aaaaa
b1010101 aaaac

#111000
b101 aaaaa
b1010110 aaaac

#114000
b10 aaaaa
b1010111 aaaac

#117000
b11 aaaaa
b1011000 aaaac

#120000
b10 aaaaa
b1011001 aaaac

#123000
b0 aaaaa
b1100111001 aaaac

#126000
b11 aaaaa
b1100111010 aaaac

#129000
b101 aaaaa
b1100111011 aaaac

#132000
b11 aaaaa
b1100111100 aaaac

#135000
b1100111101 aaaac

#138000
b101 aaaaa
b1100111110 aaaac

#141000
b100 aaaaa
b1100111111 aaaac

#144000
b1101000000 aaaac

#147000
b10 aaaaa
b1101000001 aaaac

#150000
b1 aaaaa
b1101000010 aaaac

#153000
b100 aaaaa
b1101000011 aaaac

#156000
b101 aaaaa
b1101000100 aaaac

#159000
b1101000101 aaaac

#162000
b111 aaaaa
b1101000110 aaaac

#165000
b0 aaaaa
b1101000111 aaaac

#168000
b1101001000 aaaac

#171000
b111 aaaaa
b1101001001 aaaac

#174000
b101 aaaaa
b1101001010 aaaac

#177000
b1101001011 aaaac

#180000
b11 aaaaa
b1101001100 aaaac

#183000
b10 aaaaa
b1101001101 aaaac

#186000
bZZZZZZZZ aaaaa
bZZZZZZZZZZ aaaac
zaaaad
zaaaae

#213000
b0 aaaaa
b100000101 aaaac
1aaaad
0aaaae

#216000
b10 aaaaa
b100000110 aaaac

#219000
b100 aaaaa
b100000111 aaaac

#222000
b10 aaaaa
b100001000 aaaac

#225000
b11 aaaaa
b100001001 aaaac

#228000
b111 aaaaa
b100001010 aaaac

#231000
b1 aaaaa
b100001011 aaaac

#234000
b11 aaaaa
b100001100 aaaac

#237000
b0 aaaaa
b100001101 aaaac

#240000
b110 aaaaa
b100001110 aaaac

#243000
b1 aaaaa
b100001111 aaaac

#246000
bZZZZZZZZ aaaaa
bZZZZZZZZZZ aaaac
zaaaad
zaaaae

#276000
b100 aaaaa
b1011000010 aaaac
1aaaad
0aaaae

#279000
b111 aaaaa
b1011000011 aaaac

#282000
b101 aaaaa
b1011000100 aaaac

#285000
b110 aaaaa
b1011000101 aaaac

#288000
b10 aaaaa
b1011000110 aaaac

#291000
b100 aaaaa
b1011000111 aaaac

#294000
b101 aaaaa
b1011001000 aaaac

#297000
b1 aaaaa
b1011001001 aaaac

#300000
b100 aaaaa
b1011001010 aaaac

#303000
b0 aaaaa
b1011001011 aaaac

#306000
b10 aaaaa
b1011001100 aaaac

#309000
b1 aaaaa
b1011001101 aaaac

#312000
b111 aaaaa
b1011001110 aaaac

#315000
b0 aaaaa
b1011001111 aaaac

#318000
b100 aaaaa
b1011010000 aaaac

#321000
b0 aaaaa
b1011010001 aaaac

#324000
b110 aaaaa
b1011010010 aaaac

#327000
b1011010011 aaaac

#330000
b101 aaaaa
b1011010100 aaaac

#333000
b100 aaaaa
b1011010101 aaaac

#336000
b101 aaaaa
b1011010110 aaaac

#339000
b100 aaaaa
b1001000 aaaac

#342000
b10 aaaaa
b1001001 aaaac

#345000
b1001010 aaaac

#348000
b101 aaaaa
b1001011 aaaac

#351000
b110 aaaaa
b1001100 aaaac

#354000
b0 aaaaa
b1001101 aaaac

#357000
b100 aaaaa
b1001110 aaaac

#360000
b110 aaaaa
b1001111 aaaac

#363000
b0 aaaaa
b1010000 aaaac

#366000
b110 aaaaa
b1010001 aaaac

#369000
b11 aaaaa
b1010010 aaaac

#372000
bZZZZZZZZ aaaaa
bZZZZZZZZZZ aaaac
zaaaad
zaaaae

#429000
b1 aaaaa
b1111001011 aaaac
1aaaad
0aaaae

#432000
b1111001100 aaaac

#435000
b110 aaaaa
b1111001101 aaaac

#438000
b1111001110 aaaac

#441000
b11 aaaaa
b1111001111 aaaac

#444000
b100 aaaaa
b1111010000 aaaac

#447000
b10 aaaaa
b1111010001 aaaac

#450000
b110 aaaaa
b1111010010 aaaac

#453000
b1 aaaaa
b1111010011 aaaac

#456000
b1111010100 aaaac

#459000
b11 aaaaa
b1111010101 aaaac

#462000
b101 aaaaa
b1111010110 aaaac

#465000
b100 aaaaa
b1111010111 aaaac

#468000
b0 aaaaa
b1111011000 aaaac

#471000
b111 aaaaa
b1111011001 aaaac

#474000
b101 aaaaa
b1111011010 aaaac

#477000
b1 aaaaa
b1111011011 aaaac

#480000
b11 aaaaa
b1111011100 aaaac

#483000
b111 aaaaa
b1111011101 aaaac

#486000
b1111011110 aaaac

#489000
b11 aaaaa
b1111011111 aaaac

#492000
b10 aaaaa
b10101 aaaac

#495000
b111 aaaaa
b10110 aaaac

#498000
b101 aaaaa
b10111 aaaac

#501000
b111 aaaaa
b11000 aaaac

#504000
b0 aaaaa
b11001 aaaac

#507000
b10 aaaaa
b11010 aaaac

#510000
b101 aaaaa
b11011 aaaac

#513000
b11100 aaaac

#516000
b110 aaaaa
b11101 aaaac

#519000
b101 aaaaa
b11110 aaaac

#522000
b111 aaaaa
b11111 aaaac

#525000
bZZZZZZZZ aaaaa
bZZZZZZZZZZ aaaac
zaaaad
zaaaae

#582000
b1 aaaaa
b1111001100 aaaac
1aaaad
0aaaae

#585000
b10 aaaaa
b1111001101 aaaac

#588000
b100 aaaaa
b1111001110 aaaac

#591000
b1111001111 aaaac

#594000
b11 aaaaa
b1111010000 aaaac

#597000
b1 aaaaa
b1111010001 aaaac

#600000
b1111010010 aaaac

#603000
b111 aaaaa
b1111010011 aaaac

#606000
b1 aaaaa
b1111010100 aaaac

#609000
b1111010101 aaaac

#612000
b110 aaaaa
b1111010110 aaaac

#615000
b1111010111 aaaac

#618000
b0 aaaaa
b1111011000 aaaac

#621000
b1 aaaaa
b1111011001 aaaac

#624000
b10 aaaaa
b1111011010 aaaac

#627000
b100 aaaaa
b1111011011 aaaac

#630000
b1111011100 aaaac

#633000
b10 aaaaa
b1111011101 aaaac

#636000
b100 aaaaa
b1111011110 aaaac

#639000
b110 aaaaa
b1111011111 aaaac

#642000
b111 aaaaa
b1111100000 aaaac

#645000
b0 aaaaa
b1001011010 aaaac

#648000
b100 aaaaa
b1001011011 aaaac

#651000
b1001011100 aaaac

#654000
b0 aaaaa
b1001011101 aaaac

#657000
b110 aaaaa
b1001011110 aaaac

#660000
b111 aaaaa
b1001011111 aaaac

#663000
b0 aaaaa
b1001100000 aaaac

#666000
b1 aaaaa
b1001100001 aaaac

#669000
b0 aaaaa
b1001100010 aaaac

#672000
b10 aaaaa
b1001100011 aaaac

#675000
b11 aaaaa
b1001100100 aaaac

#678000
bZZZZZZZZ aaaaa
bZZZZZZZZZZ aaaac
zaaaad
zaaaae

#735000
b110 aaaaa
b111001 aaaac
1aaaad
0aaaae

#738000
b101 aaaaa
b111010 aaaac

#741000
b11 aaaaa
b111011 aaaac

#744000
b10 aaaaa
b111100 aaaac

#747000
b1 aaaaa
b111101 aaaac

#750000
b110 aaaaa
b111110 aaaac

#753000
b10 aaaaa
b111111 aaaac

#756000
b111 aaaaa
b1000000 aaaac

#759000
b10 aaaaa
b1000001 aaaac

#762000
b100 aaaaa
b1000010 aaaac

#765000
b1000011 aaaac

#768000
b10 aaaaa
b1000100 aaaac

#771000
b11 aaaaa
b1000101 aaaac

#774000
b1000110 aaaac

#777000
b1 aaaaa
b1000111 aaaac

#780000
b0 aaaaa
b1001000 aaaac

#783000
b101 aaaaa
b1001001 aaaac

#786000
b0 aaaaa
b1001010 aaaac

#789000
b111 aaaaa
b1001011 aaaac

#792000
b110 aaaaa
b1001100 aaaac

#795000
b100 aaaaa
b1001101 aaaac

#798000
b110 aaaaa
b11110010 aaaac

#801000
b11110011 aaaac

#804000
b101 aaaaa
b11110100 aaaac

#807000
b10 aaaaa
b11110101 aaaac

#810000
b100 aaaaa
b11110110 aaaac

#813000
b0 aaaaa
b11110111 aaaac

#816000
b110 aaaaa
b11111000 aaaac

#819000
b100 aaaaa
b11111001 aaaac

#822000
b11111010 aaaac

#825000
b0 aaaaa
b11111011 aaaac

#828000
b101 aaaaa
b11111100 aaaac

#831000
bZZZZZZZZ aaaaa
bZZZZZZZZZZ aaaac
zaaaad
zaaaae

#888000
b110 aaaaa
b111010000 aaaac
1aaaad
0aaaae

#891000
b0 aaaaa
b111010001 aaaac

#894000
b11 aaaaa
b111010010 aaaac

#897000
b110 aaaaa
b111010011 aaaac

#900000
b10 aaaaa
b111010100 aaaac

#903000
b111 aaaaa
b111010101 aaaac

#906000
b10 aaaaa
b111010110 aaaac

#909000
b1 aaaaa
b111010111 aaaac

#912000
b111011000 aaaac

#915000
b11 aaaaa
b111011001 aaaac

#918000
b101 aaaaa
b111011010 aaaac

#921000
b111011011 aaaac

#924000
b110 aaaaa
b111011100 aaaac

#927000
b10 aaaaa
b111011101 aaaac

#930000
b111 aaaaa
b111011110 aaaac

#933000
b0 aaaaa
b111011111 aaaac

#936000
b101 aaaaa
b111100000 aaaac

#939000
b0 aaaaa
b111100001 aaaac

#942000
b111 aaaaa
b111100010 aaaac

#945000
b0 aaaaa
b111100011 aaaac

#948000
b111 aaaaa
b111100100 aaaac

#951000
b100 aaaaa
b111100000 aaaac

#954000
b101 aaaaa
b111100001 aaaac

#957000
b110 aaaaa
b111100010 aaaac

#960000
b1 aaaaa
b111100011 aaaac

#963000
b111100100 aaaac

#966000
b0 aaaaa
b111100101 aaaac

#969000
b1 aaaaa
b111100110 aaaac

#972000
b11 aaaaa
b111100111 aaaac

#975000
b100 aaaaa
b111101000 aaaac

#978000
b110 aaaaa
b111101001 aaaac

#981000
b1 aaaaa
b111101010 aaaac

#984000
bZZZZZZZZ aaaaa
bZZZZZZZZZZ aaaac
zaaaad
zaaaae

#1041000
b10 aaaaa
b100111111 aaaac
1aaaad
0aaaae

#1044000
b100 aaaaa
b101000000 aaaac

#1047000
b0 aaaaa
b101000001 aaaac

#1050000
b101000010 aaaac

#1053000
b1 aaaaa
b101000011 aaaac

#1056000
b0 aaaaa
b101000100 aaaac

#1059000
b101000101 aaaac

#1062000
b11 aaaaa
b101000110 aaaac

#1065000
b100 aaaaa
b101000111 aaaac

#1068000
b101 aaaaa
b101001000 aaaac

#1071000
b111 aaaaa
b101001001 aaaac

#1074000
b100 aaaaa
b101001010 aaaac

#1077000
b110 aaaaa
b101001011 aaaac

#1080000
b0 aaaaa
b101001100 aaaac

#1083000
b101 aaaaa
b101001101 aaaac

#1086000
b111 aaaaa
b101001110 aaaac

#1089000
b11 aaaaa
b101001111 aaaac

#1092000
b10 aaaaa
b101010000 aaaac

#1095000
b1 aaaaa
b101010001 aaaac

#1098000
b100 aaaaa
b101010010 aaaac

#1101000
b0 aaaaa
b101010011 aaaac

#1104000
b100 aaaaa
b1111001011 aaaac

#1107000
b10 aaaaa
b1111001100 aaaac

#1110000
b1111001101 aaaac

#1113000
b100 aaaaa
b1111001110 aaaac

#1116000
b1111001111 aaaac

#1119000
b10 aaaaa
b1111010000 aaaac

#1122000
b111 aaaaa
b1111010001 aaaac

#1125000
b1111010010 aaaac

#1128000
b1111010011 aaaac

#1131000
b0 aaaaa
b1111010100 aaaac

#1134000
b11 aaaaa
b1111010101 aaaac

#1137000
bZZZZZZZZ aaaaa
bZZZZZZZZZZ aaaac
zaaaad
zaaaae

#1194000
b111 aaaaa
b110000000 aaaac
1aaaad
0aaaae

#1197000
b110 aaaaa
b110000001 aaaac

#1200000
b10 aaaaa
b110000010 aaaac

#1203000
b11 aaaaa
b110000011 aaaac

#1206000
b111 aaaaa
b110000100 aaaac

#1209000
b1 aaaaa
b110000101 aaaac

#1212000
b10 aaaaa
b110000110 aaaac

#1215000
b110000111 aaaac

#1218000
b100 aaaaa
b110001000 aaaac

#1221000
b10 aaaaa
b110001001 aaaac

#1224000
b111 aaaaa
b110001010 aaaac

#1227000
b110001011 aaaac

#1230000
b10 aaaaa
b110001100 aaaac

#1233000
b100 aaaaa
b110001101 aaaac

#1236000
b101 aaaaa
b110001110 aaaac

#1239000
b0 aaaaa
b110001111 aaaac

#1242000
b100 aaaaa
b110010000 aaaac

#1245000
b0 aaaaa
b110010001 aaaac

#1248000
b101 aaaaa
b110010010 aaaac

#1251000
b111 aaaaa
b110010011 aaaac

#1254000
b101 aaaaa
b110010100 aaaac

#1257000
b1 aaaaa
b1010111010 aaaac

#1260000
b100 aaaaa
b1010111011 aaaac

#1263000
b110 aaaaa
b1010111100 aaaac

#1266000
b100 aaaaa
b1010111101 aaaac

#1269000
b0 aaaaa
b1010111110 aaaac

#1272000
b111 aaaaa
b1010111111 aaaac

#1275000
b10 aaaaa
b1011000000 aaaac

#1278000
b0 aaaaa
b1011000001 aaaac

#1281000
b11 aaaaa
b1011000010 aaaac

#1284000
b1011000011 aaaac

#1287000
b111 aaaaa
b1011000100 aaaac

#1290000
bZZZZZZZZ aaaaa
bZZZZZZZZZZ aaaac
zaaaad
zaaaae

#1347000
b100 aaaaa
b1110100 aaaac
1aaaad
0aaaae

#1350000
b1110101 aaaac

#1353000
b101 aaaaa
b1110110 aaaac

#1356000
b111 aaaaa
b1110111 aaaac

#1359000
b0 aaaaa
b1111000 aaaac

#1362000
b1 aaaaa
b1111001 aaaac

#1365000
b110 aaaaa
b1111010 aaaac

#1368000
b100 aaaaa
b1111011 aaaac

#1371000
b0 aaaaa
b1111100 aaaac

#1374000
b110 aaaaa
b1111101 aaaac

#1377000
b0 aaaaa
b1111110 aaaac

#1380000
b101 aaaaa
b1111111 aaaac

#1383000
b11 aaaaa
b10000000 aaaac

#1386000
b110 aaaaa
b10000001 aaaac

#1389000
b1 aaaaa
b10000010 aaaac

#1392000
b10 aaaaa
b10000011 aaaac

#1395000
b100 aaaaa
b10000100 aaaac

#1398000
b1 aaaaa
b10000101 aaaac

#1401000
b10000110 aaaac

#1404000
b11 aaaaa
b10000111 aaaac

#1407000
b101 aaaaa
b10001000 aaaac

#1410000
b1 aaaaa
b100010000 aaaac

#1413000
b10 aaaaa
b100010001 aaaac

#1416000
b11 aaaaa
b100010010 aaaac

#1419000
b101 aaaaa
b100010011 aaaac

#1422000
b110 aaaaa
b100010100 aaaac

#1425000
b101 aaaaa
b100010101 aaaac

#1428000
b110 aaaaa
b100010110 aaaac

#1431000
b100 aaaaa
b100010111 aaaac

#1434000
b1 aaaaa
b100011000 aaaac

#1437000
b111 aaaaa
b100011001 aaaac

#1440000
b110 aaaaa
b100011010 aaaac

#1443000
bZZZZZZZZ aaaaa
bZZZZZZZZZZ aaaac
zaaaad
zaaaae

#1500000
b110 aaaaa
b10101100 aaaac
1aaaad
0aaaae

#1503000
b10 aaaaa
b10101101 aaaac

#1506000
b10101110 aaaac

#1509000
b110 aaaaa
b10101111 aaaac

#1512000
b11 aaaaa
b10110000 aaaac

#1515000
b100 aaaaa
b10110001 aaaac

#1518000
b111 aaaaa
b10110010 aaaac

#1521000
b101 aaaaa
b10110011 aaaac

#1524000
b110 aaaaa
b10110100 aaaac

#1527000
b1 aaaaa
b10110101 aaaac

#1530000
b100 aaaaa
b10110110 aaaac

#1533000
b0 aaaaa
b10110111 aaaac

#1536000
b10 aaaaa
b10111000 aaaac

#1539000
b1 aaaaa
b10111001 aaaac

#1542000
b111 aaaaa
b10111010 aaaac

#1545000
b110 aaaaa
b10111011 aaaac

#1548000
b10 aaaaa
b10111100 aaaac

#1551000
b10111101 aaaac

#1554000
b11 aaaaa
b10111110 aaaac

#1557000
b111 aaaaa
b10111111 aaaac

#1560000
b11000000 aaaac

#1563000
b1 aaaaa
b11001010 aaaac

#1566000
b0 aaaaa
b11001011 aaaac

#1569000
b110 aaaaa
b11001100 aaaac

#1572000
b11 aaaaa
b11001101 aaaac

#1575000
b1 aaaaa
b11001110 aaaac

#1578000
b101 aaaaa
b11001111 aaaac

#1581000
b100 aaaaa
b11010000 aaaac

#1584000
b111 aaaaa
b11010001 aaaac

#1587000
b1 aaaaa
b11010010 aaaac

#1590000
b0 aaaaa
b11010011 aaaac

#1593000
b11 aaaaa
b11010100 aaaac

#1596000
bZZZZZZZZ aaaaa
bZZZZZZZZZZ aaaac
zaaaad
zaaaae

#1653000
b1 aaaaa
b1101100000 aaaac
1aaaad
0aaaae

#1656000
b1101100001 aaaac

#1659000
b100 aaaaa
b1101100010 aaaac

#1662000
b1101100011 aaaac

#1665000
b1101100100 aaaac

#1668000
b110 aaaaa
b1101100101 aaaac

#1671000
b111 aaaaa
b1101100110 aaaac

#1674000
b1 aaaaa
b1101100111 aaaac

#1677000
b1101101000 aaaac

#1680000
b11 aaaaa
b1101101001 aaaac

#1683000
b1101101010 aaaac

#1686000
b10 aaaaa
b1101101011 aaaac

#1689000
b110 aaaaa
b1101101100 aaaac

#1692000
b100 aaaaa
b1101101101 aaaac

#1695000
b1101101110 aaaac

#1698000
b111 aaaaa
b1101101111 aaaac

#1701000
b10 aaaaa
b1101110000 aaaac

#1704000
b111 aaaaa
b1101110001 aaaac

#1707000
b11 aaaaa
b1101110010 aaaac

#1710000
b10 aaaaa
b1101110011 aaaac

#1713000
b110 aaaaa
b1101110100 aaaac

#1716000
b0 aaaaa
b11110111 aaaac

#1719000
b100 aaaaa
b11111000 aaaac

#1722000
b110 aaaaa
b11111001 aaaac

#1725000
b11111010 aaaac

#1728000
b111 aaaaa
b11111011 aaaac

#1731000
b101 aaaaa
b11111100 aaaac

#1734000
b110 aaaaa
b11111101 aaaac

#1737000
b11 aaaaa
b11111110 aaaac

#1740000
b111 aaaaa
b11111111 aaaac

#1743000
b101 aaaaa
b100000000 aaaac

#1746000
b110 aaaaa
b100000001 aaaac

#1749000
bZZZZZZZZ aaaaa
bZZZZZZZZZZ aaaac
zaaaad
zaaaae

#1806000
b11 aaaaa
b1111111110 aaaac
1aaaad
0aaaae

#1809000
b101 aaaaa
b1111111111 aaaac

#1812000
b11 aaaaa
b0 aaaac

#1815000
b1 aaaaa
b1 aaaac

#1818000
b11 aaaaa
b10 aaaac

#1821000
b111 aaaaa
b11 aaaac

#1824000
b100 aaaaa
b100 aaaac

#1827000
b11 aaaaa
b101 aaaac

#1830000
b101 aaaaa
b110 aaaac

#1833000
b111 aaaaa
b111 aaaac

#1836000
b100 aaaaa
b1000 aaaac

#1839000
b11 aaaaa
b1001 aaaac

#1842000
b110 aaaaa
b1010 aaaac

#1845000
b111 aaaaa
b1011 aaaac

#1848000
b11 aaaaa
b1100 aaaac

#1851000
b111 aaaaa
b1101 aaaac

#1854000
b110 aaaaa
b1110 aaaac

#1857000
b100 aaaaa
b1111 aaaac

#1860000
b101 aaaaa
b10000 aaaac

#1863000
b100 aaaaa
b10001 aaaac

#1866000
b10 aaaaa
b10010 aaaac

#1869000
b110 aaaaa
b1101110111 aaaac

#1872000
b1 aaaaa
b1101111000 aaaac

#1875000
b100 aaaaa
b1101111001 aaaac

#1878000
b10 aaaaa
b1101111010 aaaac

#1881000
b110 aaaaa
b1101111011 aaaac

#1884000
b1101111100 aaaac

#1887000
b11 aaaaa
b1101111101 aaaac

#1890000
b10 aaaaa
b1101111110 aaaac

#1893000
b110 aaaaa
b1101111111 aaaac

#1896000
b1110000000 aaaac

#1899000
b111 aaaaa
b1110000001 aaaac

#1902000
bZZZZZZZZ aaaaa
bZZZZZZZZZZ aaaac
zaaaad
zaaaae

#1959000
b100 aaaaa
b1011011101 aaaac
1aaaad
0aaaae

#1962000
b1 aaaaa
b1011011110 aaaac

#1965000
b1011011111 aaaac

#1968000
b11 aaaaa
b1011100000 aaaac

#1971000
b111 aaaaa
b1011100001 aaaac

#1974000
b100 aaaaa
b1011100010 aaaac

#1977000
b1011100011 aaaac

#1980000
b0 aaaaa
b1011100100 aaaac

#1983000
b11 aaaaa
b1011100101 aaaac

#1986000
b101 aaaaa
b1011100110 aaaac

#1989000
b10 aaaaa
b1011100111 aaaac

#1992000
b11 aaaaa
b1011101000 aaaac

#1995000
b1 aaaaa
b1011101001 aaaac

#1998000
b10 aaaaa
b1011101010 aaaac

#2001000
b1011101011 aaaac

#2004000
b1011101100 aaaac

#2007000
b0 aaaaa
b1011101101 aaaac

#2010000
b10 aaaaa
b1011101110 aaaac

#2013000
b1011101111 aaaac

#2016000
b1 aaaaa
b1011110000 aaaac

#2019000
b101 aaaaa
b1011110001 aaaac

#2022000
b1011110111 aaaac

#2025000
b111 aaaaa
b1011111000 aaaac

#2028000
b1 aaaaa
b1011111001 aaaac

#2031000
b0 aaaaa
b1011111010 aaaac

#2034000
b100 aaaaa
b1011111011 aaaac

#2037000
b110 aaaaa
b1011111100 aaaac

#2040000
b100 aaaaa
b1011111101 aaaac

#2043000
b10 aaaaa
b1011111110 aaaac

#2046000
b11 aaaaa
b1011111111 aaaac

#2049000
b111 aaaaa
b1100000000 aaaac

#2052000
b1100000001 aaaac

#2055000
bZZZZZZZZ aaaaa
bZZZZZZZZZZ aaaac
zaaaad
zaaaae

