multiexchanger/dataExchange.vcd
$date
     Apr 30, 2017       22:03:12
$end

$version
 SystemC 2.3.1-Accellera --- Feb 19 2017 21:56:29
$end

$timescale
     1 ps
$end

$scope module SystemC $end
$var wire    8  aaaaa  inb1 [7:0]  $end
$var wire    8  aaaab  oub1 [7:0]  $end
$var wire   10  aaaac  adb1 [9:0]  $end
$var wire    1  aaaad  cs1       $end
$var wire    1  aaaae  rd_en1       $end
$var wire    1  aaaaf  wr_en1       $end
$var wire    8  aaaag  inb2 [7:0]  $end
$var wire    8  aaaah  oub2 [7:0]  $end
$var wire   10  aaaai  adb2 [9:0]  $end
$var wire    1  aaaaj  cs2       $end
$var wire    1  aaaak  rd_en2       $end
$var wire    1  aaaal  wr_en2       $end
$var wire    8  aaaam  inb3 [7:0]  $end
$var wire    8  aaaan  oub3 [7:0]  $end
$var wire   10  aaaao  adb3 [9:0]  $end
$var wire    1  aaaap  cs3       $end
$var wire    1  aaaaq  rd_en3       $end
$var wire    1  aaaar  wr_en3       $end
$var wire    8  aaaas  inb4 [7:0]  $end
$var wire    8  aaaat  oub4 [7:0]  $end
$var wire   10  aaaau  adb4 [9:0]  $end
$var wire    1  aaaav  cs4       $end
$var wire    1  aaaaw  rd_en4       $end
$var wire    1  aaaax  wr_en4       $end
$upscope $end
$enddefinitions  $end

$comment
All initial values are dumped below at time 0 sec = 0 timescale units.
$end

$dumpvars
bXXXXXXXX aaaaa
bXXXXXXXX aaaab
bXXXXXXXXXX aaaac
xaaaad
xaaaae
xaaaaf
bXXXXXXXX aaaag
bXXXXXXXX aaaah
bXXXXXXXXXX aaaai
xaaaaj
xaaaak
xaaaal
bXXXXXXXX aaaam
bXXXXXXXX aaaan
bXXXXXXXXXX aaaao
xaaaap
xaaaaq
xaaaar
bXXXXXXXX aaaas
bXXXXXXXX aaaat
bXXXXXXXXXX aaaau
xaaaav
xaaaaw
xaaaax
$end

#150000
b11000110 aaaab
b1111000110 aaaac
1aaaad
1aaaae
b101100100 aaaai
1aaaaj
1aaaak
1aaaap
b10100001 aaaau
1aaaav
1aaaaw

#155000
b11000111 aaaab
b1111000111 aaaac
b101100101 aaaai
b10100010 aaaau

#160000
b11001000 aaaab
b1111001000 aaaac
b101100110 aaaai
b10100011 aaaau

#165000
b11001001 aaaab
b1111001001 aaaac
b101100111 aaaai
b10100100 aaaau

#170000
b11001010 aaaab
b1111001010 aaaac
b101101000 aaaai
b10100101 aaaau

#175000
b11001011 aaaab
b1111001011 aaaac
b101101001 aaaai
b10100110 aaaau

#180000
b11001100 aaaab
b1111001100 aaaac
b101101010 aaaai
b10100111 aaaau

#185000
b11001101 aaaab
b1111001101 aaaac
b101101011 aaaai
b10101000 aaaau

#190000
b11001110 aaaab
b1111001110 aaaac
b101101100 aaaai
b10101001 aaaau

#195000
b11001111 aaaab
b1111001111 aaaac
b101101101 aaaai
b10101010 aaaau

#200000
b11010000 aaaab
b1111010000 aaaac
b101101110 aaaai
b10101011 aaaau

#205000
bZZZZZZZZ aaaaa
bZZZZZZZZZZ aaaac
zaaaae
b101101111 aaaai
b1100000010 aaaao
1aaaaq
b10101100 aaaau

#210000
b101110000 aaaai
b1100000011 aaaao
b10101101 aaaau

#215000
b101110001 aaaai
b1100000100 aaaao
b10101110 aaaau

#220000
b101110010 aaaai
b1100000101 aaaao
b10101111 aaaau

#225000
b101110011 aaaai
b1100000110 aaaao
b10110000 aaaau

#230000
b101110100 aaaai
b1100000111 aaaao
b10110001 aaaau

#235000
b101110101 aaaai
b1100001000 aaaao
b10110010 aaaau

#240000
b101110110 aaaai
b1100001001 aaaao
b10110011 aaaau

#245000
b101110111 aaaai
b1100001010 aaaao
b10110100 aaaau

#250000
b101111000 aaaai
b1100001011 aaaao
b10110101 aaaau

#255000
bZZZZZZZZ aaaag
bZZZZZZZZZZ aaaai
zaaaak
b1100001100 aaaao
b10110110 aaaau

#260000
b1100001101 aaaao
b10110111 aaaau

#265000
b1100001110 aaaao
b10111000 aaaau

#270000
b1100001111 aaaao
b10111001 aaaau

#275000
b1100010000 aaaao
b10111010 aaaau

#280000
b1100010001 aaaao
b10111011 aaaau

#285000
b1100010010 aaaao
b10111100 aaaau

#290000
b1100010011 aaaao
b10111101 aaaau

#295000
b1100010100 aaaao
b10111110 aaaau

#300000
b1100010101 aaaao
b10111111 aaaau

#305000
b1100010110 aaaao
b11000000 aaaau

#310000
b1100010111 aaaao
b11000001 aaaau

#315000
b1100011000 aaaao
b11000010 aaaau

#320000
b1100011001 aaaao
b11000011 aaaau

#325000
b1100011010 aaaao
b11000100 aaaau

#330000
b1100011011 aaaao
b11000101 aaaau

#335000
b1100011100 aaaao
b11000110 aaaau

#340000
b1100011101 aaaao
b11000111 aaaau

#345000
b1100011110 aaaao
b11001000 aaaau

#350000
b1100011111 aaaao
b11001001 aaaau

#355000
b10000111 aaaab
b10000111 aaaac
1aaaae
b1100100000 aaaao
bZZZZZZZZ aaaas
bZZZZZZZZZZ aaaau
zaaaaw

#360000
b10001000 aaaab
b10001000 aaaac
bZZZZZZZZ aaaam
bZZZZZZZZZZ aaaao
zaaaaq

#365000
b10001001 aaaab
b10001001 aaaac

#370000
b10001010 aaaab
b10001010 aaaac

#375000
b10001011 aaaab
b10001011 aaaac

#380000
b10001100 aaaab
b10001100 aaaac

#385000
b10001101 aaaab
b10001101 aaaac

#390000
b10001110 aaaab
b10001110 aaaac

#395000
b10001111 aaaab
b10001111 aaaac

#400000
b10010000 aaaab
b10010000 aaaac

#405000
b10010001 aaaab
b10010001 aaaac
b100 aaaag
b1110001010 aaaai
1aaaal

#410000
bZZZZZZZZZZ aaaac
zaaaae
b0 aaaag
b1110001011 aaaai

#415000
b101 aaaag
b1110001100 aaaai

#420000
b1110001101 aaaai

#425000
b10 aaaag
b1110001110 aaaai

#430000
b1 aaaag
b1110001111 aaaai

#435000
b111 aaaag
b1110010000 aaaai

#440000
b1110010001 aaaai

#445000
b110 aaaag
b1110010010 aaaai

#450000
b1110010011 aaaai

#455000
b100 aaaag
b1110010100 aaaai

#460000
b0 aaaag
b1110010101 aaaai

#465000
b1 aaaag
b1110010110 aaaai

#470000
b1110010111 aaaai

#475000
b10 aaaag
b1110011000 aaaai

#480000
b1 aaaag
b1110011001 aaaai

#485000
b10 aaaag
b1110011010 aaaai

#490000
b0 aaaag
b1110011011 aaaai

#495000
b1 aaaag
b1110011100 aaaai

#500000
b100 aaaag
b1110011101 aaaai

#505000
b10 aaaag
b1110011110 aaaai

#510000
bZZZZZZZZ aaaag
bZZZZZZZZZZ aaaai
zaaaal
b10 aaaas
b110010000 aaaau
1aaaax

#515000
b100 aaaas
b110010001 aaaau

#520000
b110 aaaas
b110010010 aaaau

#525000
b100 aaaas
b110010011 aaaau

#530000
b1 aaaas
b110010100 aaaau

#535000
b111 aaaas
b110010101 aaaau

#540000
b1 aaaas
b110010110 aaaau

#545000
b110010111 aaaau

#550000
b110 aaaas
b110011000 aaaau

#555000
b11 aaaas
b110011001 aaaau

#560000
b100011 aaaab
b100100011 aaaac
1aaaae
b111 aaaas
b110011010 aaaau

#565000
b100100 aaaab
b100100100 aaaac
b0 aaaas
b110011011 aaaau

#570000
b100101 aaaab
b100100101 aaaac
b1 aaaas
b110011100 aaaau

#575000
b100110 aaaab
b100100110 aaaac
b110 aaaas
b110011101 aaaau

#580000
b100111 aaaab
b100100111 aaaac
b111 aaaas
b110011110 aaaau

#585000
b101000 aaaab
b100101000 aaaac
b10 aaaas
b110011111 aaaau

#590000
b101001 aaaab
b100101001 aaaac
b101 aaaas
b110100000 aaaau

#595000
b101010 aaaab
b100101010 aaaac
b110 aaaas
b110100001 aaaau

#600000
b101011 aaaab
b100101011 aaaac
b100 aaaas
b110100010 aaaau

#605000
b101100 aaaab
b100101100 aaaac
b110 aaaas
b110100011 aaaau

#610000
b101101 aaaab
b100101101 aaaac
b11 aaaas
b110100100 aaaau

#615000
bZZZZZZZZZZ aaaac
zaaaae
b111 aaaas
b110100101 aaaau

#620000
b10 aaaas
b110100110 aaaau

#625000
b110 aaaas
b110100111 aaaau

#630000
b0 aaaas
b110101000 aaaau

#635000
b110 aaaas
b110101001 aaaau

#640000
b10 aaaas
b110101010 aaaau

#645000
b11 aaaas
b110101011 aaaau

#650000
b101 aaaas
b110101100 aaaau

#655000
b111 aaaas
b110101101 aaaau

#660000
b100 aaaas
b110101110 aaaau

#665000
b11 aaaas
b110101111 aaaau

#670000
b101 aaaas
b110110000 aaaau

#675000
b100 aaaas
b110110001 aaaau

#680000
b110110010 aaaau

#685000
b0 aaaas
b110110011 aaaau

#690000
b101 aaaas
b110110100 aaaau

#695000
b111 aaaas
b110110101 aaaau

#700000
b0 aaaas
b110110110 aaaau

#705000
b10 aaaas
b110110111 aaaau

#710000
b111 aaaas
b110111000 aaaau

#715000
b11 aaaam
b1010001101 aaaao
1aaaar
bZZZZZZZZ aaaas
bZZZZZZZZZZ aaaau
zaaaax

#720000
b110 aaaam
b1010001110 aaaao

#725000
b1010001111 aaaao

#730000
b1 aaaam
b1010010000 aaaao

#735000
b10 aaaam
b1010010001 aaaao

#740000
b0 aaaam
b1010010010 aaaao

#745000
b1010010011 aaaao

#750000
b100 aaaam
b1010010100 aaaao

#755000
b110 aaaam
b1010010101 aaaao

#760000
b1 aaaam
b1010010110 aaaao

#765000
b110 aaaam
b1010010111 aaaao

#770000
b0 aaaam
b1010011000 aaaao

#775000
b101 aaaam
b1010011001 aaaao

#780000
b100 aaaam
b1010011010 aaaao

#785000
b0 aaaam
b1010011011 aaaao

#790000
b110 aaaam
b1010011100 aaaao

#795000
b11 aaaam
b1010011101 aaaao

#800000
b111 aaaam
b1010011110 aaaao

#805000
b1010011111 aaaao

#810000
b1 aaaam
b1010100000 aaaao

#815000
b111 aaaam
b1010100001 aaaao

#820000
b110 aaaam
b1010100010 aaaao

#825000
b0 aaaam
b1010100011 aaaao

#830000
b101 aaaam
b1010100100 aaaao

#835000
b1010100101 aaaao

#840000
b100 aaaam
b1010100110 aaaao

#845000
b111 aaaam
b1010100111 aaaao

#850000
b0 aaaam
b1010101000 aaaao

#855000
b100 aaaam
b1010101001 aaaao

#860000
b1010101010 aaaao

#865000
b111 aaaam
b1010101011 aaaao

#870000
b10 aaaaa
b100110001 aaaac
1aaaaf
bZZZZZZZZ aaaam
bZZZZZZZZZZ aaaao
zaaaar

#875000
b11 aaaaa
b100110010 aaaac

#880000
b110 aaaaa
b100110011 aaaac

#885000
b10 aaaaa
b100110100 aaaac

#890000
b110 aaaaa
b100110101 aaaac

#895000
b11 aaaaa
b100110110 aaaac

#900000
b100110111 aaaac

#905000
b1 aaaaa
b100111000 aaaac

#910000
b101 aaaaa
b100111001 aaaac

#915000
b111 aaaaa
b100111010 aaaac

#920000
b11 aaaaa
b100111011 aaaac

#925000
bZZZZZZZZ aaaaa
bZZZZZZZZZZ aaaac
zaaaad
zaaaaf
zaaaaj
zaaaap
zaaaav

#1160000
1aaaad
b11 aaaag
b1000100101 aaaai
1aaaaj
1aaaal
1aaaap
1aaaav

#1165000
b10 aaaag
b1000100110 aaaai

#1170000
b1000100111 aaaai

#1175000
b100 aaaag
b1000101000 aaaai

#1180000
b1000101001 aaaai

#1185000
b10 aaaag
b1000101010 aaaai

#1190000
b1 aaaag
b1000101011 aaaai

#1195000
b11 aaaag
b1000101100 aaaai

#1200000
b100 aaaag
b1000101101 aaaai

#1205000
b1000101110 aaaai

#1210000
b11 aaaag
b1000101111 aaaai

#1215000
b110 aaaag
b1000110000 aaaai

#1220000
b1 aaaag
b1000110001 aaaai

#1225000
b1000110010 aaaai

#1230000
b111 aaaag
b1000110011 aaaai

#1235000
b1000110100 aaaai

#1240000
b100 aaaag
b1000110101 aaaai

#1245000
b10 aaaag
b1000110110 aaaai

#1250000
b101 aaaag
b1000110111 aaaai

#1255000
b111 aaaag
b1000111000 aaaai

#1260000
b1000111001 aaaai

#1265000
zaaaad
bZZZZZZZZ aaaag
bZZZZZZZZZZ aaaai
zaaaaj
zaaaal
zaaaap
zaaaav

#1365000
1aaaad
1aaaaj
1aaaap
b111 aaaas
b1011101001 aaaau
1aaaav
1aaaax

#1370000
b1011101010 aaaau

#1375000
b101 aaaas
b1011101011 aaaau

#1380000
b1 aaaas
b1011101100 aaaau

#1385000
b10 aaaas
b1011101101 aaaau

#1390000
b1011101110 aaaau

#1395000
b0 aaaas
b1011101111 aaaau

#1400000
b100 aaaas
b1011110000 aaaau

#1405000
b10 aaaas
b1011110001 aaaau

#1410000
b11 aaaas
b1011110010 aaaau

#1415000
b10 aaaas
b1011110011 aaaau

#1420000
b1011110100 aaaau

#1425000
b101 aaaas
b1011110101 aaaau

#1430000
b0 aaaas
b1011110110 aaaau

#1435000
b1 aaaas
b1011110111 aaaau

#1440000
b11 aaaas
b1011111000 aaaau

#1445000
b101 aaaas
b1011111001 aaaau

#1450000
b1011111010 aaaau

#1455000
b10 aaaas
b1011111011 aaaau

#1460000
b100 aaaas
b1011111100 aaaau

#1465000
b1 aaaas
b1011111101 aaaau

#1470000
b111 aaaas
b1011111110 aaaau

#1475000
b11 aaaas
b1011111111 aaaau

#1480000
b1 aaaas
b1100000000 aaaau

#1485000
b111 aaaas
b1100000001 aaaau

#1490000
b11 aaaas
b1100000010 aaaau

#1495000
b111 aaaas
b1100000011 aaaau

#1500000
b11 aaaas
b1100000100 aaaau

#1505000
b1 aaaas
b1100000101 aaaau

#1510000
b0 aaaas
b1100000110 aaaau

#1515000
b10 aaaas
b1100000111 aaaau

#1520000
b100 aaaas
b1100001000 aaaau

#1525000
b101 aaaas
b1100001001 aaaau

#1530000
b10 aaaas
b1100001010 aaaau

#1535000
b110 aaaas
b1100001011 aaaau

#1540000
b1 aaaas
b1100001100 aaaau

#1545000
b1100001101 aaaau

#1550000
b1100001110 aaaau

#1555000
b101 aaaas
b1100001111 aaaau

#1560000
b0 aaaas
b1100010000 aaaau

#1565000
b111 aaaas
b1100010001 aaaau

#1570000
b0 aaaam
b101011001 aaaao
1aaaar
bZZZZZZZZ aaaas
bZZZZZZZZZZ aaaau
zaaaax

#1575000
b10100001 aaaab
b110100001 aaaac
1aaaae
b1 aaaam
b101011010 aaaao

#1580000
b10100010 aaaab
b110100010 aaaac
b100 aaaam
b101011011 aaaao

#1585000
b10100011 aaaab
b110100011 aaaac
b11 aaaam
b101011100 aaaao

#1590000
b10100100 aaaab
b110100100 aaaac
b111 aaaam
b101011101 aaaao

#1595000
b10100101 aaaab
b110100101 aaaac
b100 aaaam
b101011110 aaaao

#1600000
b10100110 aaaab
b110100110 aaaac
b111 aaaam
b101011111 aaaao

#1605000
b10100111 aaaab
b110100111 aaaac
b0 aaaam
b101100000 aaaao

#1610000
b10101000 aaaab
b110101000 aaaac
b100 aaaam
b101100001 aaaao

#1615000
b10101001 aaaab
b110101001 aaaac
b101100010 aaaao

#1620000
b10101010 aaaab
b110101010 aaaac
b11 aaaam
b101100011 aaaao

#1625000
b10101011 aaaab
b110101011 aaaac
b0 aaaam
b101100100 aaaao

#1630000
bZZZZZZZZZZ aaaac
zaaaae
b101 aaaam
b101100101 aaaao

#1635000
b110 aaaam
b101100110 aaaao

#1640000
b11 aaaam
b101100111 aaaao

#1645000
b1 aaaam
b101101000 aaaao

#1650000
b101101001 aaaao

#1655000
b10 aaaam
b101101010 aaaao

#1660000
b100 aaaam
b101101011 aaaao

#1665000
b10 aaaam
b101101100 aaaao

#1670000
b101 aaaam
b101101101 aaaao

#1675000
b10 aaaam
b101101110 aaaao

#1680000
b100 aaaam
b101101111 aaaao

#1685000
b101 aaaam
b101110000 aaaao

#1690000
b1 aaaam
b101110001 aaaao

#1695000
b11 aaaam
b101110010 aaaao

#1700000
b101110011 aaaao

#1705000
b110 aaaam
b101110100 aaaao

#1710000
b101110101 aaaao

#1715000
b1 aaaam
b101110110 aaaao

#1720000
b101110111 aaaao

#1725000
zaaaad
zaaaaj
bZZZZZZZZ aaaam
bZZZZZZZZZZ aaaao
zaaaap
zaaaar
zaaaav

#1780000
b10100 aaaab
b1000010100 aaaac
1aaaad
1aaaae
1aaaaj
1aaaap
1aaaav

#1785000
b10101 aaaab
b1000010101 aaaac

#1790000
b10110 aaaab
b1000010110 aaaac

#1795000
b10111 aaaab
b1000010111 aaaac

#1800000
b11000 aaaab
b1000011000 aaaac

#1805000
b11001 aaaab
b1000011001 aaaac

#1810000
b11010 aaaab
b1000011010 aaaac

#1815000
b11011 aaaab
b1000011011 aaaac

#1820000
b11100 aaaab
b1000011100 aaaac

#1825000
b11101 aaaab
b1000011101 aaaac

#1830000
b11110 aaaab
b1000011110 aaaac

#1835000
bZZZZZZZZZZ aaaac
zaaaad
zaaaae
zaaaaj
zaaaap
zaaaav

#1915000
1aaaad
b11 aaaag
b11100 aaaai
1aaaaj
1aaaal
1aaaap
1aaaav

#1920000
b11101 aaaai

#1925000
b0 aaaag
b11110 aaaai

#1930000
b1 aaaag
b11111 aaaai

#1935000
b0 aaaag
b100000 aaaai

#1940000
b110 aaaag
b100001 aaaai

#1945000
b10 aaaag
b100010 aaaai

#1950000
b1 aaaag
b100011 aaaai

#1955000
b10 aaaag
b100100 aaaai

#1960000
b11 aaaag
b100101 aaaai

#1965000
b1 aaaag
b100110 aaaai

#1970000
b0 aaaag
b100111 aaaai

#1975000
b10 aaaag
b101000 aaaai

#1980000
b1 aaaag
b101001 aaaai

#1985000
b0 aaaag
b101010 aaaai

#1990000
b11 aaaag
b101011 aaaai

#1995000
b110 aaaag
b101100 aaaai

#2000000
b1 aaaag
b101101 aaaai

#2005000
b10 aaaag
b101110 aaaai

#2010000
b11 aaaag
b101111 aaaai

#2015000
b101 aaaag
b110000 aaaai

#2020000
b100 aaaaa
b1111010110 aaaac
1aaaaf
bZZZZZZZZ aaaag
bZZZZZZZZZZ aaaai
zaaaal

#2025000
b11 aaaaa
b1111010111 aaaac

#2030000
b10 aaaaa
b1111011000 aaaac

#2035000
b0 aaaaa
b1111011001 aaaac

#2040000
b1111011010 aaaac

#2045000
b1 aaaaa
b1111011011 aaaac

#2050000
b1111011100 aaaac

#2055000
b1111011101 aaaac

#2060000
b110 aaaaa
b1111011110 aaaac

#2065000
b111 aaaaa
b1111011111 aaaac

#2070000
b0 aaaaa
b1111100000 aaaac

#2075000
bZZZZZZZZ aaaaa
bZZZZZZZZZZ aaaac
zaaaad
zaaaaf
zaaaaj
zaaaap
zaaaav

