multiexchanger/dataExchange.vcd
$date
     Apr 29, 2017       15:33:39
$end

$version
 SystemC 2.3.1-Accellera --- Feb 19 2017 21:56:29
$end

$timescale
     1 ps
$end

$scope module SystemC $end
$var wire    8  aaaaa  inb [7:0]  $end
$var wire    8  aaaab  oub [7:0]  $end
$var wire   10  aaaac  adb [9:0]  $end
$var wire    1  aaaad  cs       $end
$var wire    1  aaaae  rd_en       $end
$var wire    1  aaaaf  wr_en       $end
$upscope $end
$enddefinitions  $end

$comment
All initial values are dumped below at time 0 sec = 0 timescale units.
$end

$dumpvars
bXXXXXXXX aaaaa
bXXXXXXXX aaaab
bXXXXXXXXXX aaaac
xaaaad
xaaaae
xaaaaf
$end

#150000
b0 aaaaa
b1000000001 aaaac
1aaaad
1aaaaf

#155000
b110 aaaaa
b1000000010 aaaac

#160000
b1 aaaaa
b1000000011 aaaac

#165000
b101 aaaaa
b1000000100 aaaac

#170000
b100 aaaaa
b1000000101 aaaac

#175000
b1 aaaaa
b1000000110 aaaac

#180000
b1000000111 aaaac

#185000
b100 aaaaa
b1000001000 aaaac

#190000
b11 aaaaa
b1000001001 aaaac

#195000
b1000001010 aaaac

#200000
b0 aaaaa
b1000001011 aaaac

#205000
b1111011101 aaaac

#210000
b101 aaaaa
b1111011110 aaaac

#215000
b110 aaaaa
b1111011111 aaaac

#220000
b100 aaaaa
b1111100000 aaaac

#225000
b11 aaaaa
b1111100001 aaaac

#230000
b100 aaaaa
b1111100010 aaaac

#235000
b101 aaaaa
b1111100011 aaaac

#240000
b111 aaaaa
b1111100100 aaaac

#245000
b11 aaaaa
b1111100101 aaaac

#250000
b0 aaaaa
b1111100110 aaaac

#255000
b100 aaaaa
b1111100111 aaaac

#260000
b110 aaaaa
b1111101000 aaaac

#265000
b1 aaaaa
b1111101001 aaaac

#270000
b111 aaaaa
b1111101010 aaaac

#275000
b100 aaaaa
b1111101011 aaaac

#280000
b0 aaaaa
b1111101100 aaaac

#285000
b101 aaaaa
b1111101101 aaaac

#290000
b1 aaaaa
b1111101110 aaaac

#295000
b101 aaaaa
b1111101111 aaaac

#300000
b10 aaaaa
b1111110000 aaaac

#305000
b11 aaaaa
b1111110001 aaaac

#310000
b1 aaaaa
b110111000 aaaac

#315000
b101 aaaaa
b110111001 aaaac

#320000
b11 aaaaa
b110111010 aaaac

#325000
b10 aaaaa
b110111011 aaaac

#330000
b110111100 aaaac

#335000
b111 aaaaa
b110111101 aaaac

#340000
b1 aaaaa
b110111110 aaaac

#345000
b110111111 aaaac

#350000
b10 aaaaa
b111000000 aaaac

#355000
b110 aaaaa
b111000001 aaaac

#360000
b0 aaaaa
b111000010 aaaac

#365000
b101 aaaaa
b111000011 aaaac

#370000
b1 aaaaa
b111000100 aaaac

#375000
b10 aaaaa
b111000101 aaaac

#380000
b1 aaaaa
b111000110 aaaac

#385000
b100 aaaaa
b111000111 aaaac

#390000
b101 aaaaa
b111001000 aaaac

#395000
b111 aaaaa
b111001001 aaaac

#400000
b0 aaaaa
b111001010 aaaac

#405000
b11 aaaaa
b111001011 aaaac

#410000
b111001100 aaaac

#415000
b0 aaaaa
b111001101 aaaac

#420000
b101 aaaaa
b111001110 aaaac

#425000
b0 aaaaa
b111001111 aaaac

#430000
b110 aaaaa
b111010000 aaaac

#435000
b10 aaaaa
b111010001 aaaac

#440000
b101 aaaaa
b111010010 aaaac

#445000
b111 aaaaa
b111010011 aaaac

#450000
b111010100 aaaac

#455000
b101 aaaaa
b111010101 aaaac

#460000
b0 aaaaa
b111010110 aaaac

#465000
b1 aaaaa
b1110010011 aaaac

#470000
b101 aaaaa
b1110010100 aaaac

#475000
b111 aaaaa
b1110010101 aaaac

#480000
b1 aaaaa
b1110010110 aaaac

#485000
b1110010111 aaaac

#490000
b11 aaaaa
b1110011000 aaaac

#495000
b100 aaaaa
b1110011001 aaaac

#500000
b1110011010 aaaac

#505000
b10 aaaaa
b1110011011 aaaac

#510000
b11 aaaaa
b1110011100 aaaac

#515000
b100 aaaaa
b1110011101 aaaac

#520000
b101 aaaaa
b1110011110 aaaac

#525000
b1 aaaaa
b1110011111 aaaac

#530000
b101 aaaaa
b1110100000 aaaac

#535000
b111 aaaaa
b1110100001 aaaac

#540000
b1110100010 aaaac

#545000
b101 aaaaa
b1110100011 aaaac

#550000
b1110100100 aaaac

#555000
b11 aaaaa
b1110100101 aaaac

#560000
b100 aaaaa
b1110100110 aaaac

#565000
b11 aaaaa
b1110100111 aaaac

#570000
b101 aaaaa
b1110101000 aaaac

#575000
b100 aaaaa
b1110101001 aaaac

#580000
b0 aaaaa
b1110101010 aaaac

#585000
b111 aaaaa
b1110101011 aaaac

#590000
b0 aaaaa
b1110101100 aaaac

#595000
b1 aaaaa
b1110101101 aaaac

#600000
b11 aaaaa
b1110101110 aaaac

#605000
b100 aaaaa
b1110101111 aaaac

#610000
b1110110000 aaaac

#615000
b1 aaaaa
b1110110001 aaaac

#620000
b10 aaaaa
b1110110010 aaaac

#625000
b110 aaaaa
b1110110011 aaaac

#630000
b111 aaaaa
b1110110100 aaaac

#635000
b110 aaaaa
b1110110101 aaaac

#640000
b0 aaaaa
b1110110110 aaaac

#645000
b110 aaaaa
b1110110111 aaaac

#650000
b1110111000 aaaac

#655000
b10 aaaaa
b1110111001 aaaac

#660000
b1 aaaaa
b1110111010 aaaac

#665000
b101 aaaaa
b1110111011 aaaac

#670000
bZZZZZZZZ aaaaa
bZZZZZZZZZZ aaaac
zaaaad
zaaaaf

#855000
b1 aaaaa
b1010101110 aaaac
1aaaad
1aaaaf

#860000
b100 aaaaa
b1010101111 aaaac

#865000
b110 aaaaa
b1010110000 aaaac

#870000
b100 aaaaa
b1010110001 aaaac

#875000
b101 aaaaa
b1010110010 aaaac

#880000
b11 aaaaa
b1010110011 aaaac

#885000
b10 aaaaa
b1010110100 aaaac

#890000
b1 aaaaa
b1010110101 aaaac

#895000
b11 aaaaa
b1010110110 aaaac

#900000
b101 aaaaa
b1010110111 aaaac

#905000
b1 aaaaa
b1010111000 aaaac

#910000
bZZZZZZZZ aaaaa
bZZZZZZZZZZ aaaac
zaaaad
zaaaaf

#960000
b111 aaaaa
b110110010 aaaac
1aaaad
1aaaaf

#965000
b1 aaaaa
b110110011 aaaac

#970000
b101 aaaaa
b110110100 aaaac

#975000
b100 aaaaa
b110110101 aaaac

#980000
b1 aaaaa
b110110110 aaaac

#985000
b100 aaaaa
b110110111 aaaac

#990000
b1 aaaaa
b110111000 aaaac

#995000
b101 aaaaa
b110111001 aaaac

#1000000
b111 aaaaa
b110111010 aaaac

#1005000
b101 aaaaa
b110111011 aaaac

#1010000
b100 aaaaa
b110111100 aaaac

#1015000
b101 aaaaa
b110111101 aaaac

#1020000
b1 aaaaa
b110111110 aaaac

#1025000
b10 aaaaa
b110111111 aaaac

#1030000
b111 aaaaa
b111000000 aaaac

#1035000
b11 aaaaa
b111000001 aaaac

#1040000
b10 aaaaa
b111000010 aaaac

#1045000
b111 aaaaa
b111000011 aaaac

#1050000
b10 aaaaa
b111000100 aaaac

#1055000
b0 aaaaa
b111000101 aaaac

#1060000
b111 aaaaa
b111000110 aaaac

#1065000
bZZZZZZZZ aaaaa
bZZZZZZZZZZ aaaac
zaaaad
zaaaaf

#1115000
b101 aaaaa
b1100001100 aaaac
1aaaad
1aaaaf

#1120000
b110 aaaaa
b1100001101 aaaac

#1125000
b100 aaaaa
b1100001110 aaaac

#1130000
b1 aaaaa
b1100001111 aaaac

#1135000
b111 aaaaa
b1100010000 aaaac

#1140000
b0 aaaaa
b1100010001 aaaac

#1145000
b10 aaaaa
b1100010010 aaaac

#1150000
b0 aaaaa
b1100010011 aaaac

#1155000
b1100010100 aaaac

#1160000
b101 aaaaa
b1100010101 aaaac

#1165000
b111 aaaaa
b1100010110 aaaac

#1170000
b11 aaaaa
b1100010111 aaaac

#1175000
b1 aaaaa
b1100011000 aaaac

#1180000
b0 aaaaa
b1100011001 aaaac

#1185000
b110 aaaaa
b1100011010 aaaac

#1190000
b1 aaaaa
b1100011011 aaaac

#1195000
b110 aaaaa
b1100011100 aaaac

#1200000
b100 aaaaa
b1100011101 aaaac

#1205000
b11 aaaaa
b1100011110 aaaac

#1210000
b100 aaaaa
b1100011111 aaaac

#1215000
b10 aaaaa
b1100100000 aaaac

#1220000
b1100100001 aaaac

#1225000
b11 aaaaa
b1100100010 aaaac

#1230000
b1 aaaaa
b1100100011 aaaac

#1235000
b100 aaaaa
b1100100100 aaaac

#1240000
b111 aaaaa
b1100100101 aaaac

#1245000
b11 aaaaa
b1100100110 aaaac

#1250000
b0 aaaaa
b1100100111 aaaac

#1255000
b110 aaaaa
b1100101000 aaaac

#1260000
b100 aaaaa
b1100101001 aaaac

#1265000
b110 aaaaa
b1100101010 aaaac

#1270000
bZZZZZZZZ aaaaa
bZZZZZZZZZZ aaaac
zaaaad
zaaaaf

#1320000
b111 aaaaa
b100010010 aaaac
1aaaad
1aaaaf

#1325000
b100010011 aaaac

#1330000
b100 aaaaa
b100010100 aaaac

#1335000
b11 aaaaa
b100010101 aaaac

#1340000
b100010110 aaaac

#1345000
b1 aaaaa
b100010111 aaaac

#1350000
b100 aaaaa
b100011000 aaaac

#1355000
b1 aaaaa
b100011001 aaaac

#1360000
b11 aaaaa
b100011010 aaaac

#1365000
b0 aaaaa
b100011011 aaaac

#1370000
b10 aaaaa
b100011100 aaaac

#1375000
b1 aaaaa
b100011101 aaaac

#1380000
b111 aaaaa
b100011110 aaaac

#1385000
b100 aaaaa
b100011111 aaaac

#1390000
b101 aaaaa
b100100000 aaaac

#1395000
b100100001 aaaac

#1400000
b111 aaaaa
b100100010 aaaac

#1405000
b100100011 aaaac

#1410000
b11 aaaaa
b100100100 aaaac

#1415000
b0 aaaaa
b100100101 aaaac

#1420000
b100 aaaaa
b100100110 aaaac

#1425000
b0 aaaaa
b100100111 aaaac

#1430000
b100101000 aaaac

#1435000
b100101001 aaaac

#1440000
b10 aaaaa
b100101010 aaaac

#1445000
b100101011 aaaac

#1450000
b1 aaaaa
b100101100 aaaac

#1455000
b101 aaaaa
b100101101 aaaac

#1460000
b100 aaaaa
b100101110 aaaac

#1465000
b110 aaaaa
b100101111 aaaac

#1470000
b0 aaaaa
b100110000 aaaac

#1475000
b100110001 aaaac

#1480000
b1 aaaaa
b100110010 aaaac

#1485000
b111 aaaaa
b100110011 aaaac

#1490000
b1 aaaaa
b100110100 aaaac

#1495000
b111 aaaaa
b100110101 aaaac

#1500000
b110 aaaaa
b100110110 aaaac

#1505000
b100 aaaaa
b100110111 aaaac

#1510000
b100111000 aaaac

#1515000
b1 aaaaa
b100111001 aaaac

#1520000
b100 aaaaa
b100111010 aaaac

#1525000
bZZZZZZZZ aaaaa
bZZZZZZZZZZ aaaac
zaaaad
zaaaaf

#1560000
b100 aaaaa
b1000111001 aaaac
1aaaad
1aaaaf

#1565000
b111 aaaaa
b1000111010 aaaac

#1570000
b101 aaaaa
b1000111011 aaaac

#1575000
b1 aaaaa
b1000111100 aaaac

#1580000
b100 aaaaa
b1000111101 aaaac

#1585000
b101 aaaaa
b1000111110 aaaac

#1590000
b111 aaaaa
b1000111111 aaaac

#1595000
b1001000000 aaaac

#1600000
b100 aaaaa
b1001000001 aaaac

#1605000
b1001000010 aaaac

#1610000
b111 aaaaa
b1001000011 aaaac

#1615000
bZZZZZZZZ aaaaa
bZZZZZZZZZZ aaaac
zaaaad
zaaaaf

#1715000
b110 aaaaa
b1010110 aaaac
1aaaad
1aaaaf

#1720000
b100 aaaaa
b1010111 aaaac

#1725000
b1 aaaaa
b1011000 aaaac

#1730000
b1011001 aaaac

#1735000
b111 aaaaa
b1011010 aaaac

#1740000
b1011011 aaaac

#1745000
b100 aaaaa
b1011100 aaaac

#1750000
b111 aaaaa
b1011101 aaaac

#1755000
b10 aaaaa
b1011110 aaaac

#1760000
b11 aaaaa
b1011111 aaaac

#1765000
b0 aaaaa
b1100000 aaaac

#1770000
b110 aaaaa
b1100001 aaaac

#1775000
b10 aaaaa
b1100010 aaaac

#1780000
b0 aaaaa
b1100011 aaaac

#1785000
b111 aaaaa
b1100100 aaaac

#1790000
b1 aaaaa
b1100101 aaaac

#1795000
b10 aaaaa
b1100110 aaaac

#1800000
b0 aaaaa
b1100111 aaaac

#1805000
b1 aaaaa
b1101000 aaaac

#1810000
b10 aaaaa
b1101001 aaaac

#1815000
b110 aaaaa
b1101010 aaaac

#1820000
bZZZZZZZZ aaaaa
bZZZZZZZZZZ aaaac
zaaaad
zaaaaf

#1920000
b11 aaaaa
b111110101 aaaac
1aaaad
1aaaaf

#1925000
b10 aaaaa
b111110110 aaaac

#1930000
b11 aaaaa
b111110111 aaaac

#1935000
b101 aaaaa
b111111000 aaaac

#1940000
b10 aaaaa
b111111001 aaaac

#1945000
b110 aaaaa
b111111010 aaaac

#1950000
b111111011 aaaac

#1955000
b101 aaaaa
b111111100 aaaac

#1960000
b0 aaaaa
b111111101 aaaac

#1965000
b1 aaaaa
b111111110 aaaac

#1970000
b110 aaaaa
b111111111 aaaac

#1975000
b0 aaaaa
b1000000000 aaaac

#1980000
b10 aaaaa
b1000000001 aaaac

#1985000
b11 aaaaa
b1000000010 aaaac

#1990000
b111 aaaaa
b1000000011 aaaac

#1995000
b1000000100 aaaac

#2000000
b11 aaaaa
b1000000101 aaaac

#2005000
b1 aaaaa
b1000000110 aaaac

#2010000
b1000000111 aaaac

#2015000
b110 aaaaa
b1000001000 aaaac

#2020000
b11 aaaaa
b1000001001 aaaac

#2025000
b101 aaaaa
b1000001010 aaaac

#2030000
b0 aaaaa
b1000001011 aaaac

#2035000
b101 aaaaa
b1000001100 aaaac

#2040000
b1 aaaaa
b1000001101 aaaac

#2045000
b101 aaaaa
b1000001110 aaaac

#2050000
b1000001111 aaaac

#2055000
b100 aaaaa
b1000010000 aaaac

#2060000
b10 aaaaa
b1000010001 aaaac

#2065000
b110 aaaaa
b1000010010 aaaac

#2070000
b101 aaaaa
b1000010011 aaaac

#2075000
bZZZZZZZZ aaaaa
bZZZZZZZZZZ aaaac
zaaaad
zaaaaf

