multiexchanger/dataExchange.vcd
$date
     Apr 26, 2017       22:32:01
$end

$version
 SystemC 2.3.1-Accellera --- Feb 19 2017 21:56:29
$end

$timescale
     1 ps
$end

$scope module SystemC $end
$var wire    8  aaaaa  inb [7:0]  $end
$var wire    8  aaaab  oub [7:0]  $end
$var wire   10  aaaac  adb [9:0]  $end
$var wire    1  aaaad  cs       $end
$var wire    1  aaaae  rwb       $end
$upscope $end
$enddefinitions  $end

$comment
All initial values are dumped below at time 0 sec = 0 timescale units.
$end

$dumpvars
bXXXXXXXX aaaaa
bXXXXXXXX aaaab
bXXXXXXXXXX aaaac
xaaaad
xaaaae
$end

#90000
b0 aaaaa
b1100110111 aaaac
1aaaad
0aaaae

#93000
b11 aaaaa
b1100111000 aaaac

#96000
b10 aaaaa
b1100111001 aaaac

#99000
b1 aaaaa
b1100111010 aaaac

#102000
b1100111011 aaaac

#105000
b110 aaaaa
b1100111100 aaaac

#108000
b11 aaaaa
b1100111101 aaaac

#111000
b101 aaaaa
b1100111110 aaaac

#114000
b11 aaaaa
b1100111111 aaaac

#117000
b101 aaaaa
b1101000000 aaaac

#120000
b0 aaaaa
b1101000001 aaaac

#123000
b100 aaaaa
b100110110 aaaac

#126000
b111 aaaaa
b100110111 aaaac

#129000
b101 aaaaa
b100111000 aaaac

#132000
b11 aaaaa
b100111001 aaaac

#135000
b100111010 aaaac

#138000
b110 aaaaa
b100111011 aaaac

#141000
b1 aaaaa
b100111100 aaaac

#144000
b100 aaaaa
b100111101 aaaac

#147000
b0 aaaaa
b100111110 aaaac

#150000
b10 aaaaa
b100111111 aaaac

#153000
b100 aaaaa
b101000000 aaaac

#156000
b111 aaaaa
b101000001 aaaac

#159000
b100 aaaaa
b101000010 aaaac

#162000
b1 aaaaa
b101000011 aaaac

#165000
b101000100 aaaac

#168000
b111 aaaaa
b101000101 aaaac

#171000
b0 aaaaa
b101000110 aaaac

#174000
b11 aaaaa
b101000111 aaaac

#177000
b100 aaaaa
b101001000 aaaac

#180000
b0 aaaaa
b101001001 aaaac

#183000
b101001010 aaaac

#186000
bZZZZZZZZ aaaaa
bZZZZZZZZZZ aaaac
zaaaad
zaaaae

#213000
b100 aaaaa
b1111111100 aaaac
1aaaad
0aaaae

#216000
b0 aaaaa
b1111111101 aaaac

#219000
b100 aaaaa
b1111111110 aaaac

#222000
b10 aaaaa
b1111111111 aaaac

#225000
b1 aaaaa
b0 aaaac

#228000
b1 aaaac

#231000
b11 aaaaa
b10 aaaac

#234000
b0 aaaaa
b11 aaaac

#237000
b10 aaaaa
b100 aaaac

#240000
b100 aaaaa
b101 aaaac

#243000
b111 aaaaa
b110 aaaac

#246000
bZZZZZZZZ aaaaa
bZZZZZZZZZZ aaaac
zaaaad
zaaaae

#276000
b110 aaaaa
b11111001 aaaac
1aaaad
0aaaae

#279000
b1 aaaaa
b11111010 aaaac

#282000
b10 aaaaa
b11111011 aaaac

#285000
b101 aaaaa
b11111100 aaaac

#288000
b11111101 aaaac

#291000
b110 aaaaa
b11111110 aaaac

#294000
b101 aaaaa
b11111111 aaaac

#297000
b10 aaaaa
b100000000 aaaac

#300000
b11 aaaaa
b100000001 aaaac

#303000
b110 aaaaa
b100000010 aaaac

#306000
b100 aaaaa
b100000011 aaaac

#309000
b101 aaaaa
b100000100 aaaac

#312000
b110 aaaaa
b100000101 aaaac

#315000
b10 aaaaa
b100000110 aaaac

#318000
b101 aaaaa
b100000111 aaaac

#321000
b100001000 aaaac

#324000
b0 aaaaa
b100001001 aaaac

#327000
b100001010 aaaac

#330000
b110 aaaaa
b100001011 aaaac

#333000
b111 aaaaa
b100001100 aaaac

#336000
b0 aaaaa
b100001101 aaaac

#339000
b10 aaaaa
b10101101 aaaac

#342000
b110 aaaaa
b10101110 aaaac

#345000
b111 aaaaa
b10101111 aaaac

#348000
b10 aaaaa
b10110000 aaaac

#351000
b110 aaaaa
b10110001 aaaac

#354000
b100 aaaaa
b10110010 aaaac

#357000
b10110011 aaaac

#360000
b110 aaaaa
b10110100 aaaac

#363000
b100 aaaaa
b10110101 aaaac

#366000
b110 aaaaa
b10110110 aaaac

#369000
b10110111 aaaac

#372000
bZZZZZZZZ aaaaa
bZZZZZZZZZZ aaaac
zaaaad
zaaaae

#429000
b0 aaaaa
b111101111 aaaac
1aaaad
0aaaae

#432000
b101 aaaaa
b111110000 aaaac

#435000
b1 aaaaa
b111110001 aaaac

#438000
b11 aaaaa
b111110010 aaaac

#441000
b110 aaaaa
b111110011 aaaac

#444000
b0 aaaaa
b111110100 aaaac

#447000
b1 aaaaa
b111110101 aaaac

#450000
b11 aaaaa
b111110110 aaaac

#453000
b111 aaaaa
b111110111 aaaac

#456000
b11 aaaaa
b111111000 aaaac

#459000
b100 aaaaa
b111111001 aaaac

#462000
b1 aaaaa
b111111010 aaaac

#465000
b10 aaaaa
b111111011 aaaac

#468000
b111111100 aaaac

#471000
b111111101 aaaac

#474000
b111111110 aaaac

#477000
b111111111 aaaac

#480000
b11 aaaaa
b1000000000 aaaac

#483000
b111 aaaaa
b1000000001 aaaac

#486000
b1000000010 aaaac

#489000
b10 aaaaa
b1000000011 aaaac

#492000
b110 aaaaa
b1110100000 aaaac

#495000
b100 aaaaa
b1110100001 aaaac

#498000
b111 aaaaa
b1110100010 aaaac

#501000
b11 aaaaa
b1110100011 aaaac

#504000
b111 aaaaa
b1110100100 aaaac

#507000
b1110100101 aaaac

#510000
b101 aaaaa
b1110100110 aaaac

#513000
b111 aaaaa
b1110100111 aaaac

#516000
b101 aaaaa
b1110101000 aaaac

#519000
b11 aaaaa
b1110101001 aaaac

#522000
b110 aaaaa
b1110101010 aaaac

#525000
bZZZZZZZZ aaaaa
bZZZZZZZZZZ aaaac
zaaaad
zaaaae

#582000
b1 aaaaa
b10010011 aaaac
1aaaad
0aaaae

#585000
b11 aaaaa
b10010100 aaaac

#588000
b10 aaaaa
b10010101 aaaac

#591000
b100 aaaaa
b10010110 aaaac

#594000
b111 aaaaa
b10010111 aaaac

#597000
b110 aaaaa
b10011000 aaaac

#600000
b11 aaaaa
b10011001 aaaac

#603000
b110 aaaaa
b10011010 aaaac

#606000
b0 aaaaa
b10011011 aaaac

#609000
b1 aaaaa
b10011100 aaaac

#612000
b0 aaaaa
b10011101 aaaac

#615000
b100 aaaaa
b10011110 aaaac

#618000
b10 aaaaa
b10011111 aaaac

#621000
b11 aaaaa
b10100000 aaaac

#624000
b101 aaaaa
b10100001 aaaac

#627000
b0 aaaaa
b10100010 aaaac

#630000
b100 aaaaa
b10100011 aaaac

#633000
b10100100 aaaac

#636000
b10100101 aaaac

#639000
b10 aaaaa
b10100110 aaaac

#642000
b110 aaaaa
b10100111 aaaac

#645000
b111 aaaaa
b11001101 aaaac

#648000
b11 aaaaa
b11001110 aaaac

#651000
b0 aaaaa
b11001111 aaaac

#654000
b11 aaaaa
b11010000 aaaac

#657000
b1 aaaaa
b11010001 aaaac

#660000
b110 aaaaa
b11010010 aaaac

#663000
b111 aaaaa
b11010011 aaaac

#666000
b1 aaaaa
b11010100 aaaac

#669000
b110 aaaaa
b11010101 aaaac

#672000
b1 aaaaa
b11010110 aaaac

#675000
b10 aaaaa
b11010111 aaaac

#678000
bZZZZZZZZ aaaaa
bZZZZZZZZZZ aaaac
zaaaad
zaaaae

#735000
b110 aaaaa
b1101100000 aaaac
1aaaad
0aaaae

#738000
b100 aaaaa
b1101100001 aaaac

#741000
b111 aaaaa
b1101100010 aaaac

#744000
b110 aaaaa
b1101100011 aaaac

#747000
b111 aaaaa
b1101100100 aaaac

#750000
b10 aaaaa
b1101100101 aaaac

#753000
b111 aaaaa
b1101100110 aaaac

#756000
b1 aaaaa
b1101100111 aaaac

#759000
b101 aaaaa
b1101101000 aaaac

#762000
b0 aaaaa
b1101101001 aaaac

#765000
b110 aaaaa
b1101101010 aaaac

#768000
b1101101011 aaaac

#771000
b10 aaaaa
b1101101100 aaaac

#774000
b100 aaaaa
b1101101101 aaaac

#777000
b101 aaaaa
b1101101110 aaaac

#780000
b111 aaaaa
b1101101111 aaaac

#783000
b0 aaaaa
b1101110000 aaaac

#786000
b110 aaaaa
b1101110001 aaaac

#789000
b100 aaaaa
b1101110010 aaaac

#792000
b0 aaaaa
b1101110011 aaaac

#795000
b100 aaaaa
b1101110100 aaaac

#798000
b110 aaaaa
b1010111011 aaaac

#801000
b101 aaaaa
b1010111100 aaaac

#804000
b111 aaaaa
b1010111101 aaaac

#807000
b0 aaaaa
b1010111110 aaaac

#810000
b1010111111 aaaac

#813000
b10 aaaaa
b1011000000 aaaac

#816000
b110 aaaaa
b1011000001 aaaac

#819000
b10 aaaaa
b1011000010 aaaac

#822000
b1 aaaaa
b1011000011 aaaac

#825000
b100 aaaaa
b1011000100 aaaac

#828000
b1011000101 aaaac

#831000
bZZZZZZZZ aaaaa
bZZZZZZZZZZ aaaac
zaaaad
zaaaae

#888000
b11 aaaaa
b100100101 aaaac
1aaaad
0aaaae

#891000
b1 aaaaa
b100100110 aaaac

#894000
b110 aaaaa
b100100111 aaaac

#897000
b100 aaaaa
b100101000 aaaac

#900000
b101 aaaaa
b100101001 aaaac

#903000
b11 aaaaa
b100101010 aaaac

#906000
b0 aaaaa
b100101011 aaaac

#909000
b100 aaaaa
b100101100 aaaac

#912000
b10 aaaaa
b100101101 aaaac

#915000
b110 aaaaa
b100101110 aaaac

#918000
b100101111 aaaac

#921000
b100 aaaaa
b100110000 aaaac

#924000
b100110001 aaaac

#927000
b1 aaaaa
b100110010 aaaac

#930000
b101 aaaaa
b100110011 aaaac

#933000
b111 aaaaa
b100110100 aaaac

#936000
b100 aaaaa
b100110101 aaaac

#939000
b11 aaaaa
b100110110 aaaac

#942000
b110 aaaaa
b100110111 aaaac

#945000
b101 aaaaa
b100111000 aaaac

#948000
b110 aaaaa
b100111001 aaaac

#951000
b101 aaaaa
b10100111 aaaac

#954000
b10101000 aaaac

#957000
b1 aaaaa
b10101001 aaaac

#960000
b111 aaaaa
b10101010 aaaac

#963000
b101 aaaaa
b10101011 aaaac

#966000
b11 aaaaa
b10101100 aaaac

#969000
b100 aaaaa
b10101101 aaaac

#972000
b111 aaaaa
b10101110 aaaac

#975000
b10 aaaaa
b10101111 aaaac

#978000
b11 aaaaa
b10110000 aaaac

#981000
b101 aaaaa
b10110001 aaaac

#984000
bZZZZZZZZ aaaaa
bZZZZZZZZZZ aaaac
zaaaad
zaaaae

#1041000
b100 aaaaa
b1000000011 aaaac
1aaaad
0aaaae

#1044000
b1000000100 aaaac

#1047000
b10 aaaaa
b1000000101 aaaac

#1050000
b11 aaaaa
b1000000110 aaaac

#1053000
b100 aaaaa
b1000000111 aaaac

#1056000
b0 aaaaa
b1000001000 aaaac

#1059000
b100 aaaaa
b1000001001 aaaac

#1062000
b11 aaaaa
b1000001010 aaaac

#1065000
b101 aaaaa
b1000001011 aaaac

#1068000
b0 aaaaa
b1000001100 aaaac

#1071000
b110 aaaaa
b1000001101 aaaac

#1074000
b11 aaaaa
b1000001110 aaaac

#1077000
b1 aaaaa
b1000001111 aaaac

#1080000
b11 aaaaa
b1000010000 aaaac

#1083000
b100 aaaaa
b1000010001 aaaac

#1086000
b111 aaaaa
b1000010010 aaaac

#1089000
b11 aaaaa
b1000010011 aaaac

#1092000
b1000010100 aaaac

#1095000
b1 aaaaa
b1000010101 aaaac

#1098000
b10 aaaaa
b1000010110 aaaac

#1101000
b1 aaaaa
b1000010111 aaaac

#1104000
b111110110 aaaac

#1107000
b110 aaaaa
b111110111 aaaac

#1110000
b11 aaaaa
b111111000 aaaac

#1113000
b110 aaaaa
b111111001 aaaac

#1116000
b0 aaaaa
b111111010 aaaac

#1119000
b11 aaaaa
b111111011 aaaac

#1122000
b111 aaaaa
b111111100 aaaac

#1125000
b101 aaaaa
b111111101 aaaac

#1128000
b111 aaaaa
b111111110 aaaac

#1131000
b110 aaaaa
b111111111 aaaac

#1134000
b1 aaaaa
b1000000000 aaaac

#1137000
bZZZZZZZZ aaaaa
bZZZZZZZZZZ aaaac
zaaaad
zaaaae

#1194000
b1 aaaaa
b110111001 aaaac
1aaaad
0aaaae

#1197000
b101 aaaaa
b110111010 aaaac

#1200000
b11 aaaaa
b110111011 aaaac

#1203000
b10 aaaaa
b110111100 aaaac

#1206000
b110 aaaaa
b110111101 aaaac

#1209000
b111 aaaaa
b110111110 aaaac

#1212000
b100 aaaaa
b110111111 aaaac

#1215000
b1 aaaaa
b111000000 aaaac

#1218000
b111 aaaaa
b111000001 aaaac

#1221000
b1 aaaaa
b111000010 aaaac

#1224000
b111000011 aaaac

#1227000
b100 aaaaa
b111000100 aaaac

#1230000
b101 aaaaa
b111000101 aaaac

#1233000
b10 aaaaa
b111000110 aaaac

#1236000
b0 aaaaa
b111000111 aaaac

#1239000
b11 aaaaa
b111001000 aaaac

#1242000
b0 aaaaa
b111001001 aaaac

#1245000
b1 aaaaa
b111001010 aaaac

#1248000
b11 aaaaa
b111001011 aaaac

#1251000
b110 aaaaa
b111001100 aaaac

#1254000
b10 aaaaa
b111001101 aaaac

#1257000
b11 aaaaa
b1011011100 aaaac

#1260000
b0 aaaaa
b1011011101 aaaac

#1263000
b10 aaaaa
b1011011110 aaaac

#1266000
b0 aaaaa
b1011011111 aaaac

#1269000
b111 aaaaa
b1011100000 aaaac

#1272000
b110 aaaaa
b1011100001 aaaac

#1275000
b10 aaaaa
b1011100010 aaaac

#1278000
b111 aaaaa
b1011100011 aaaac

#1281000
b100 aaaaa
b1011100100 aaaac

#1284000
b110 aaaaa
b1011100101 aaaac

#1287000
b10 aaaaa
b1011100110 aaaac

#1290000
bZZZZZZZZ aaaaa
bZZZZZZZZZZ aaaac
zaaaad
zaaaae

#1347000
b101 aaaaa
b1101000001 aaaac
1aaaad
0aaaae

#1350000
b110 aaaaa
b1101000010 aaaac

#1353000
b10 aaaaa
b1101000011 aaaac

#1356000
b1101000100 aaaac

#1359000
b100 aaaaa
b1101000101 aaaac

#1362000
b111 aaaaa
b1101000110 aaaac

#1365000
b100 aaaaa
b1101000111 aaaac

#1368000
b101 aaaaa
b1101001000 aaaac

#1371000
b111 aaaaa
b1101001001 aaaac

#1374000
b100 aaaaa
b1101001010 aaaac

#1377000
b110 aaaaa
b1101001011 aaaac

#1380000
b0 aaaaa
b1101001100 aaaac

#1383000
b10 aaaaa
b1101001101 aaaac

#1386000
b100 aaaaa
b1101001110 aaaac

#1389000
b110 aaaaa
b1101001111 aaaac

#1392000
b11 aaaaa
b1101010000 aaaac

#1395000
b0 aaaaa
b1101010001 aaaac

#1398000
b100 aaaaa
b1101010010 aaaac

#1401000
b10 aaaaa
b1101010011 aaaac

#1404000
b1101010100 aaaac

#1407000
b0 aaaaa
b1101010101 aaaac

#1410000
b11 aaaaa
b1001001101 aaaac

#1413000
b111 aaaaa
b1001001110 aaaac

#1416000
b100 aaaaa
b1001001111 aaaac

#1419000
b0 aaaaa
b1001010000 aaaac

#1422000
b1001010001 aaaac

#1425000
b1001010010 aaaac

#1428000
b10 aaaaa
b1001010011 aaaac

#1431000
b1 aaaaa
b1001010100 aaaac

#1434000
b1001010101 aaaac

#1437000
b100 aaaaa
b1001010110 aaaac

#1440000
b101 aaaaa
b1001010111 aaaac

#1443000
bZZZZZZZZ aaaaa
bZZZZZZZZZZ aaaac
zaaaad
zaaaae

#1500000
b0 aaaaa
b11101101 aaaac
1aaaad
0aaaae

#1503000
b100 aaaaa
b11101110 aaaac

#1506000
b11 aaaaa
b11101111 aaaac

#1509000
b111 aaaaa
b11110000 aaaac

#1512000
b0 aaaaa
b11110001 aaaac

#1515000
b11 aaaaa
b11110010 aaaac

#1518000
b101 aaaaa
b11110011 aaaac

#1521000
b11110100 aaaac

#1524000
b111 aaaaa
b11110101 aaaac

#1527000
b101 aaaaa
b11110110 aaaac

#1530000
b10 aaaaa
b11110111 aaaac

#1533000
b11 aaaaa
b11111000 aaaac

#1536000
b101 aaaaa
b11111001 aaaac

#1539000
b10 aaaaa
b11111010 aaaac

#1542000
b100 aaaaa
b11111011 aaaac

#1545000
b110 aaaaa
b11111100 aaaac

#1548000
b1 aaaaa
b11111101 aaaac

#1551000
b111 aaaaa
b11111110 aaaac

#1554000
b10 aaaaa
b11111111 aaaac

#1557000
b100 aaaaa
b100000000 aaaac

#1560000
b11 aaaaa
b100000001 aaaac

#1563000
b110 aaaaa
b100100100 aaaac

#1566000
b101 aaaaa
b100100101 aaaac

#1569000
b111 aaaaa
b100100110 aaaac

#1572000
b1 aaaaa
b100100111 aaaac

#1575000
b100 aaaaa
b100101000 aaaac

#1578000
b111 aaaaa
b100101001 aaaac

#1581000
b10 aaaaa
b100101010 aaaac

#1584000
b100 aaaaa
b100101011 aaaac

#1587000
b101 aaaaa
b100101100 aaaac

#1590000
b110 aaaaa
b100101101 aaaac

#1593000
b10 aaaaa
b100101110 aaaac

#1596000
bZZZZZZZZ aaaaa
bZZZZZZZZZZ aaaac
zaaaad
zaaaae

#1653000
b10 aaaaa
b110000011 aaaac
1aaaad
0aaaae

#1656000
b100 aaaaa
b110000100 aaaac

#1659000
b10 aaaaa
b110000101 aaaac

#1662000
b0 aaaaa
b110000110 aaaac

#1665000
b1 aaaaa
b110000111 aaaac

#1668000
b110 aaaaa
b110001000 aaaac

#1671000
b0 aaaaa
b110001001 aaaac

#1674000
b100 aaaaa
b110001010 aaaac

#1677000
b10 aaaaa
b110001011 aaaac

#1680000
b101 aaaaa
b110001100 aaaac

#1683000
b10 aaaaa
b110001101 aaaac

#1686000
b0 aaaaa
b110001110 aaaac

#1689000
b110 aaaaa
b110001111 aaaac

#1692000
b100 aaaaa
b110010000 aaaac

#1695000
b110010001 aaaac

#1698000
b1 aaaaa
b110010010 aaaac

#1701000
b100 aaaaa
b110010011 aaaac

#1704000
b0 aaaaa
b110010100 aaaac

#1707000
b101 aaaaa
b110010101 aaaac

#1710000
b110010110 aaaac

#1713000
b10 aaaaa
b110010111 aaaac

#1716000
b11 aaaaa
b1010010001 aaaac

#1719000
b10 aaaaa
b1010010010 aaaac

#1722000
b1 aaaaa
b1010010011 aaaac

#1725000
b101 aaaaa
b1010010100 aaaac

#1728000
b1010010101 aaaac

#1731000
b10 aaaaa
b1010010110 aaaac

#1734000
b1010010111 aaaac

#1737000
b1 aaaaa
b1010011000 aaaac

#1740000
b0 aaaaa
b1010011001 aaaac

#1743000
b111 aaaaa
b1010011010 aaaac

#1746000
b0 aaaaa
b1010011011 aaaac

#1749000
bZZZZZZZZ aaaaa
bZZZZZZZZZZ aaaac
zaaaad
zaaaae

#1806000
b111 aaaaa
b1000010100 aaaac
1aaaad
0aaaae

#1809000
b0 aaaaa
b1000010101 aaaac

#1812000
b10 aaaaa
b1000010110 aaaac

#1815000
b1000010111 aaaac

#1818000
b1000011000 aaaac

#1821000
b0 aaaaa
b1000011001 aaaac

#1824000
b111 aaaaa
b1000011010 aaaac

#1827000
b1 aaaaa
b1000011011 aaaac

#1830000
b0 aaaaa
b1000011100 aaaac

#1833000
b110 aaaaa
b1000011101 aaaac

#1836000
b10 aaaaa
b1000011110 aaaac

#1839000
b1000011111 aaaac

#1842000
b100 aaaaa
b1000100000 aaaac

#1845000
b110 aaaaa
b1000100001 aaaac

#1848000
b0 aaaaa
b1000100010 aaaac

#1851000
b1000100011 aaaac

#1854000
b111 aaaaa
b1000100100 aaaac

#1857000
b0 aaaaa
b1000100101 aaaac

#1860000
b111 aaaaa
b1000100110 aaaac

#1863000
b110 aaaaa
b1000100111 aaaac

#1866000
b100 aaaaa
b1000101000 aaaac

#1869000
b1 aaaaa
b111001000 aaaac

#1872000
b11 aaaaa
b111001001 aaaac

#1875000
b111 aaaaa
b111001010 aaaac

#1878000
b11 aaaaa
b111001011 aaaac

#1881000
b10 aaaaa
b111001100 aaaac

#1884000
b1 aaaaa
b111001101 aaaac

#1887000
b11 aaaaa
b111001110 aaaac

#1890000
b111001111 aaaac

#1893000
b111010000 aaaac

#1896000
b110 aaaaa
b111010001 aaaac

#1899000
b0 aaaaa
b111010010 aaaac

#1902000
bZZZZZZZZ aaaaa
bZZZZZZZZZZ aaaac
zaaaad
zaaaae

#1959000
b1 aaaaa
b101111000 aaaac
1aaaad
0aaaae

#1962000
b11 aaaaa
b101111001 aaaac

#1965000
b101 aaaaa
b101111010 aaaac

#1968000
b11 aaaaa
b101111011 aaaac

#1971000
b111 aaaaa
b101111100 aaaac

#1974000
b100 aaaaa
b101111101 aaaac

#1977000
b101111110 aaaac

#1980000
b11 aaaaa
b101111111 aaaac

#1983000
b10 aaaaa
b110000000 aaaac

#1986000
b1 aaaaa
b110000001 aaaac

#1989000
b110 aaaaa
b110000010 aaaac

#1992000
b100 aaaaa
b110000011 aaaac

#1995000
b110 aaaaa
b110000100 aaaac

#1998000
b11 aaaaa
b110000101 aaaac

#2001000
b101 aaaaa
b110000110 aaaac

#2004000
b0 aaaaa
b110000111 aaaac

#2007000
b1 aaaaa
b110001000 aaaac

#2010000
b11 aaaaa
b110001001 aaaac

#2013000
b110 aaaaa
b110001010 aaaac

#2016000
b0 aaaaa
b110001011 aaaac

#2019000
b10 aaaaa
b110001100 aaaac

#2022000
b11 aaaaa
b11100111 aaaac

#2025000
b0 aaaaa
b11101000 aaaac

#2028000
b10 aaaaa
b11101001 aaaac

#2031000
b110 aaaaa
b11101010 aaaac

#2034000
b111 aaaaa
b11101011 aaaac

#2037000
b110 aaaaa
b11101100 aaaac

#2040000
b111 aaaaa
b11101101 aaaac

#2043000
b11101110 aaaac

#2046000
b11 aaaaa
b11101111 aaaac

#2049000
b1 aaaaa
b11110000 aaaac

#2052000
b11110001 aaaac

#2055000
bZZZZZZZZ aaaaa
bZZZZZZZZZZ aaaac
zaaaad
zaaaae

