multiexchanger/dataExchange.vcd
$date
     May 02, 2017       21:09:30
$end

$version
 SystemC 2.3.1-Accellera --- Feb 19 2017 21:56:29
$end

$timescale
     1 ps
$end

$scope module SystemC $end
$var wire    8  aaaaa  inb1 [7:0]  $end
$var wire    8  aaaab  oub1 [7:0]  $end
$var wire   10  aaaac  adb1 [9:0]  $end
$var wire    1  aaaad  rd_en1       $end
$var wire    1  aaaae  wr_en1       $end
$var wire    8  aaaaf  inb2 [7:0]  $end
$var wire    8  aaaag  oub2 [7:0]  $end
$var wire   10  aaaah  adb2 [9:0]  $end
$var wire    1  aaaai  rd_en2       $end
$var wire    1  aaaaj  wr_en2       $end
$var wire    8  aaaak  inb3 [7:0]  $end
$var wire    8  aaaal  oub3 [7:0]  $end
$var wire   10  aaaam  adb3 [9:0]  $end
$var wire    1  aaaan  rd_en3       $end
$var wire    1  aaaao  wr_en3       $end
$var wire    8  aaaap  inb4 [7:0]  $end
$var wire    8  aaaaq  oub4 [7:0]  $end
$var wire   10  aaaar  adb4 [9:0]  $end
$var wire    1  aaaas  rd_en4       $end
$var wire    1  aaaat  wr_en4       $end
$upscope $end
$enddefinitions  $end

$comment
All initial values are dumped below at time 0 sec = 0 timescale units.
$end

$dumpvars
bXXXXXXXX aaaaa
bXXXXXXXX aaaab
bXXXXXXXXXX aaaac
xaaaad
xaaaae
bXXXXXXXX aaaaf
bXXXXXXXX aaaag
bXXXXXXXXXX aaaah
xaaaai
xaaaaj
bXXXXXXXX aaaak
bXXXXXXXX aaaal
bXXXXXXXXXX aaaam
xaaaan
xaaaao
bXXXXXXXX aaaap
bXXXXXXXX aaaaq
bXXXXXXXXXX aaaar
xaaaas
xaaaat
$end

#150000
b1100011 aaaab
b1100011 aaaac
1aaaad
0aaaae
b110 aaaaf
b1010011110 aaaah
0aaaai
1aaaaj

#155000
b1100100 aaaab
b1100100 aaaac
b1 aaaaf
b1010011111 aaaah

#160000
b1100101 aaaab
b1100101 aaaac
b11 aaaaf
b1010100000 aaaah

#165000
b1100110 aaaab
b1100110 aaaac
b101 aaaaf
b1010100001 aaaah

#170000
b1100111 aaaab
b1100111 aaaac
b100 aaaaf
b1010100010 aaaah

#175000
b1101000 aaaab
b1101000 aaaac
b1010100011 aaaah

#180000
b1101001 aaaab
b1101001 aaaac
b1 aaaaf
b1010100100 aaaah

#185000
b1101010 aaaab
b1101010 aaaac
b10 aaaaf
b1010100101 aaaah

#190000
b1101011 aaaab
b1101011 aaaac
b1010100110 aaaah

#195000
b1101100 aaaab
b1101100 aaaac
b100 aaaaf
b1010100111 aaaah

#200000
b1101101 aaaab
b1101101 aaaac
b11 aaaaf
b1010101000 aaaah

#205000
bZZZZZZZZ aaaaa
bZZZZZZZZZZ aaaac
0aaaad
b1010101001 aaaah

#210000
b101 aaaaf
b1010101010 aaaah

#215000
b10 aaaaf
b1010101011 aaaah

#220000
b0 aaaaf
b1010101100 aaaah

#225000
b100 aaaaf
b1010101101 aaaah

#230000
b1 aaaaf
b1010101110 aaaah

#235000
b11 aaaaf
b1010101111 aaaah

#240000
b100 aaaaf
b1010110000 aaaah

#245000
b1 aaaaf
b1010110001 aaaah

#250000
b111 aaaaf
b1010110010 aaaah

#255000
bZZZZZZZZ aaaaf
bZZZZZZZZZZ aaaah
0aaaaj
b110 aaaap
b1100010110 aaaar
0aaaas
1aaaat

#260000
b101 aaaap
b1100010111 aaaar

#265000
b0 aaaap
b1100011000 aaaar

#270000
b101 aaaap
b1100011001 aaaar

#275000
b10 aaaap
b1100011010 aaaar

#280000
b1100011011 aaaar

#285000
b111 aaaap
b1100011100 aaaar

#290000
b1 aaaap
b1100011101 aaaar

#295000
b0 aaaap
b1100011110 aaaar

#300000
b11 aaaap
b1100011111 aaaar

#305000
b111 aaaap
b1100100000 aaaar

#310000
b101 aaaap
b1100100001 aaaar

#315000
b0 aaaap
b1100100010 aaaar

#320000
b100 aaaap
b1100100011 aaaar

#325000
b111 aaaap
b1100100100 aaaar

#330000
b11 aaaap
b1100100101 aaaar

#335000
b110 aaaap
b1100100110 aaaar

#340000
b1100100111 aaaar

#345000
b111 aaaap
b1100101000 aaaar

#350000
b0 aaaap
b1100101001 aaaar

#355000
b1001011 aaaab
b1001011 aaaac
1aaaad
b111 aaaap
b1100101010 aaaar

#360000
b1001100 aaaab
b1001100 aaaac
b110 aaaap
b1100101011 aaaar

#365000
b1001101 aaaab
b1001101 aaaac
b1 aaaap
b1100101100 aaaar

#370000
b1001110 aaaab
b1001110 aaaac
b11 aaaap
b1100101101 aaaar

#375000
b1001111 aaaab
b1001111 aaaac
b10 aaaap
b1100101110 aaaar

#380000
b1010000 aaaab
b1010000 aaaac
b1100101111 aaaar

#385000
b1010001 aaaab
b1010001 aaaac
b101 aaaap
b1100110000 aaaar

#390000
b1010010 aaaab
b1010010 aaaac
b110 aaaap
b1100110001 aaaar

#395000
b1010011 aaaab
b1010011 aaaac
b10 aaaap
b1100110010 aaaar

#400000
b1010100 aaaab
b1010100 aaaac
b1 aaaap
b1100110011 aaaar

#405000
b1010101 aaaab
b1010101 aaaac
b100 aaaap
b1100110100 aaaar

#410000
bZZZZZZZZZZ aaaac
0aaaad
b0 aaaap
b1100110101 aaaar

#415000
b1 aaaap
b1100110110 aaaar

#420000
b11 aaaap
b1100110111 aaaar

#425000
b10 aaaap
b1100111000 aaaar

#430000
b1 aaaap
b1100111001 aaaar

#435000
b111 aaaap
b1100111010 aaaar

#440000
b1 aaaap
b1100111011 aaaar

#445000
b110 aaaap
b1100111100 aaaar

#450000
b0 aaaap
b1100111101 aaaar

#455000
b11 aaaap
b1100111110 aaaar

#460000
b110 aaaak
b11011010 aaaam
0aaaan
1aaaao
bZZZZZZZZ aaaap
bZZZZZZZZZZ aaaar
0aaaat

#465000
b111 aaaak
b11011011 aaaam

#470000
b101 aaaak
b11011100 aaaam

#475000
b1 aaaak
b11011101 aaaam

#480000
b111 aaaak
b11011110 aaaam

#485000
b11 aaaak
b11011111 aaaam

#490000
b0 aaaak
b11100000 aaaam

#495000
b110 aaaak
b11100001 aaaam

#500000
b101 aaaak
b11100010 aaaam

#505000
b0 aaaak
b11100011 aaaam

#510000
b101 aaaak
b11100100 aaaam

#515000
b100 aaaak
b11100101 aaaam

#520000
b10 aaaak
b11100110 aaaam

#525000
b111 aaaak
b11100111 aaaam

#530000
b11101000 aaaam

#535000
b100 aaaak
b11101001 aaaam

#540000
b0 aaaak
b11101010 aaaam

#545000
b11101011 aaaam

#550000
b1 aaaak
b11101100 aaaam

#555000
b101 aaaak
b11101101 aaaam

#560000
b111 aaaak
b11101110 aaaam

#565000
b11 aaaak
b11101111 aaaam

#570000
b11110000 aaaam

#575000
b1 aaaak
b11110001 aaaam

#580000
b10 aaaak
b11110010 aaaam

#585000
b110 aaaak
b11110011 aaaam

#590000
b11 aaaak
b11110100 aaaam

#595000
b10 aaaak
b11110101 aaaam

#600000
b11 aaaak
b11110110 aaaam

#605000
b110 aaaak
b11110111 aaaam

#610000
b101 aaaak
b11111000 aaaam

#615000
b0 aaaaa
b110100001 aaaac
1aaaae
bZZZZZZZZ aaaak
bZZZZZZZZZZ aaaam
0aaaao

#620000
b100 aaaaa
b110100010 aaaac

#625000
b1 aaaaa
b110100011 aaaac

#630000
b111 aaaaa
b110100100 aaaac

#635000
b0 aaaaa
b110100101 aaaac

#640000
b110100110 aaaac

#645000
b1 aaaaa
b110100111 aaaac

#650000
b10 aaaaa
b110101000 aaaac

#655000
b111 aaaaa
b110101001 aaaac
b1000101 aaaag
b1000101 aaaah
1aaaai

#660000
b110 aaaaa
b110101010 aaaac
b1000110 aaaag
b1000110 aaaah

#665000
b0 aaaaa
b110101011 aaaac
b1000111 aaaag
b1000111 aaaah

#670000
bZZZZZZZZ aaaaa
bZZZZZZZZZZ aaaac
0aaaae
b1001000 aaaag
b1001000 aaaah

#675000
b1001001 aaaag
b1001001 aaaah

#680000
b1001010 aaaag
b1001010 aaaah

#685000
b1001011 aaaag
b1001011 aaaah

#690000
b1001100 aaaag
b1001100 aaaah

#695000
b1001101 aaaag
b1001101 aaaah

#700000
b1001110 aaaag
b1001110 aaaah

#705000
b1001111 aaaag
b1001111 aaaah

#710000
b1010000 aaaag
b1010000 aaaah

#715000
b1010001 aaaag
b1010001 aaaah

#720000
b1010010 aaaag
b1010010 aaaah

#725000
b1010011 aaaag
b1010011 aaaah

#730000
b1010100 aaaag
b1010100 aaaah

#735000
b1010101 aaaag
b1010101 aaaah

#740000
b1010110 aaaag
b1010110 aaaah

#745000
b1010111 aaaag
b1010111 aaaah

#750000
b1011000 aaaag
b1011000 aaaah

#755000
b1011001 aaaag
b1011001 aaaah

#760000
bZZZZZZZZZZ aaaah
0aaaai

#860000
b11001100 aaaaq
b111001100 aaaar
1aaaas

#865000
b11001101 aaaaq
b111001101 aaaar

#870000
b11001110 aaaaq
b111001110 aaaar

#875000
b11001111 aaaaq
b111001111 aaaar

#880000
b11010000 aaaaq
b111010000 aaaar

#885000
b11010001 aaaaq
b111010001 aaaar

#890000
b11010010 aaaaq
b111010010 aaaar

#895000
b11010011 aaaaq
b111010011 aaaar

#900000
b11010100 aaaaq
b111010100 aaaar

#905000
b11010101 aaaaq
b111010101 aaaar

#910000
b1 aaaaf
b1101110010 aaaah
1aaaaj
b11010110 aaaaq
b111010110 aaaar

#915000
b1101110011 aaaah
b11010111 aaaaq
b111010111 aaaar

#920000
b110 aaaaf
b1101110100 aaaah
b11011000 aaaaq
b111011000 aaaar

#925000
b100 aaaaf
b1101110101 aaaah
b11011001 aaaaq
b111011001 aaaar

#930000
b1101110110 aaaah
b11011010 aaaaq
b111011010 aaaar

#935000
b110 aaaaf
b1101110111 aaaah
b11011011 aaaaq
b111011011 aaaar

#940000
b1 aaaaf
b1101111000 aaaah
b11011100 aaaaq
b111011100 aaaar

#945000
b110 aaaaf
b1101111001 aaaah
b11011101 aaaaq
b111011101 aaaar

#950000
b0 aaaaf
b1101111010 aaaah
b11011110 aaaaq
b111011110 aaaar

#955000
b11 aaaaf
b1101111011 aaaah
b11011111 aaaaq
b111011111 aaaar

#960000
b1 aaaaf
b1101111100 aaaah
b11100000 aaaaq
b111100000 aaaar

#965000
b0 aaaaf
b1101111101 aaaah
b11100001 aaaaq
b111100001 aaaar

#970000
b110 aaaaf
b1101111110 aaaah
b11100010 aaaaq
b111100010 aaaar

#975000
b101 aaaaf
b1101111111 aaaah
b11100011 aaaaq
b111100011 aaaar

#980000
b111 aaaaf
b1110000000 aaaah
b11100100 aaaaq
b111100100 aaaar

#985000
b101 aaaaf
b1110000001 aaaah
b11100101 aaaaq
b111100101 aaaar

#990000
b10 aaaaf
b1110000010 aaaah
b11100110 aaaaq
b111100110 aaaar

#995000
b100 aaaaf
b1110000011 aaaah
b11100111 aaaaq
b111100111 aaaar

#1000000
b1 aaaaf
b1110000100 aaaah
b11101000 aaaaq
b111101000 aaaar

#1005000
b11 aaaaf
b1110000101 aaaah
b11101001 aaaaq
b111101001 aaaar

#1010000
b111 aaaaf
b1110000110 aaaah
b11101010 aaaaq
b111101010 aaaar

#1015000
bZZZZZZZZ aaaaf
bZZZZZZZZZZ aaaah
0aaaaj
b10011100 aaaal
b1010011100 aaaam
1aaaan
b111101011 aaaar

#1020000
b10011101 aaaal
b1010011101 aaaam
b111101100 aaaar

#1025000
b110 aaaal
b1010011110 aaaam
b111101101 aaaar

#1030000
b1 aaaal
b1010011111 aaaam
b111101110 aaaar

#1035000
b11 aaaal
b1010100000 aaaam
b111101111 aaaar

#1040000
b101 aaaal
b1010100001 aaaam
b111110000 aaaar

#1045000
b100 aaaal
b1010100010 aaaam
b111110001 aaaar

#1050000
b1010100011 aaaam
b111110010 aaaar

#1055000
b1 aaaal
b1010100100 aaaam
b111110011 aaaar

#1060000
b10 aaaal
b1010100101 aaaam
b111110100 aaaar

#1065000
b1010100110 aaaam
bZZZZZZZZZZ aaaar
0aaaas

#1070000
b101 aaaaa
b101101011 aaaac
1aaaae
b100 aaaal
b1010100111 aaaam

#1075000
b110 aaaaa
b101101100 aaaac
b11 aaaal
b1010101000 aaaam

#1080000
b101101101 aaaac
b1010101001 aaaam

#1085000
b111 aaaaa
b101101110 aaaac
b101 aaaal
b1010101010 aaaam

#1090000
b101 aaaaa
b101101111 aaaac
b10 aaaal
b1010101011 aaaam

#1095000
b111 aaaaa
b101110000 aaaac
b0 aaaal
b1010101100 aaaam

#1100000
b101 aaaaa
b101110001 aaaac
b100 aaaal
b1010101101 aaaam

#1105000
b1 aaaaa
b101110010 aaaac
b1 aaaal
b1010101110 aaaam

#1110000
b101 aaaaa
b101110011 aaaac
b11 aaaal
b1010101111 aaaam

#1115000
b111 aaaaa
b101110100 aaaac
b100 aaaal
b1010110000 aaaam

#1120000
b10 aaaaa
b101110101 aaaac
b1 aaaal
b1010110001 aaaam

#1125000
bZZZZZZZZ aaaaa
bZZZZZZZZZZ aaaac
0aaaae
b111 aaaal
b1010110010 aaaam

#1130000
b10110011 aaaal
b1010110011 aaaam

#1135000
b10110100 aaaal
b1010110100 aaaam

#1140000
b10110101 aaaal
b1010110101 aaaam

#1145000
b10110110 aaaal
b1010110110 aaaam

#1150000
b10110111 aaaal
b1010110111 aaaam

#1155000
b10111000 aaaal
b1010111000 aaaam

#1160000
b10111001 aaaal
b1010111001 aaaam

#1165000
b10111010 aaaal
b1010111010 aaaam

#1170000
bZZZZZZZZZZ aaaam
0aaaan

#1215000
b10110010 aaaaq
b10110010 aaaar
1aaaas

#1220000
b10110011 aaaaq
b10110011 aaaar

#1225000
b10110100 aaaaq
b10110100 aaaar

#1230000
b10110101 aaaaq
b10110101 aaaar

#1235000
b10110110 aaaaq
b10110110 aaaar

#1240000
b10110111 aaaaq
b10110111 aaaar

#1245000
b10111000 aaaaq
b10111000 aaaar

#1250000
b10111001 aaaaq
b10111001 aaaar

#1255000
b10111010 aaaaq
b10111010 aaaar

#1260000
b10111011 aaaaq
b10111011 aaaar

#1265000
b10111100 aaaaq
b10111100 aaaar

#1270000
b10111101 aaaaq
b10111101 aaaar

#1275000
b10111110 aaaaq
b10111110 aaaar

#1280000
b10111111 aaaaq
b10111111 aaaar

#1285000
b11000000 aaaaq
b11000000 aaaar

#1290000
b11000001 aaaaq
b11000001 aaaar

#1295000
b11000010 aaaaq
b11000010 aaaar

#1300000
b11000011 aaaaq
b11000011 aaaar

#1305000
b11000100 aaaaq
b11000100 aaaar

#1310000
b11000101 aaaaq
b11000101 aaaar

#1315000
b11000110 aaaaq
b11000110 aaaar

#1320000
b101 aaaak
b1001010110 aaaam
1aaaao
b11000111 aaaaq
b11000111 aaaar

#1325000
b111 aaaak
b1001010111 aaaam
b11001000 aaaaq
b11001000 aaaar

#1330000
b100 aaaak
b1001011000 aaaam
b11001001 aaaaq
b11001001 aaaar

#1335000
b110 aaaak
b1001011001 aaaam
b11001010 aaaaq
b11001010 aaaar

#1340000
b11 aaaak
b1001011010 aaaam
b11001011 aaaaq
b11001011 aaaar

#1345000
b0 aaaak
b1001011011 aaaam
b11001100 aaaaq
b11001100 aaaar

#1350000
b1001011100 aaaam
b11001101 aaaaq
b11001101 aaaar

#1355000
b100 aaaak
b1001011101 aaaam
b11001110 aaaaq
b11001110 aaaar

#1360000
b101 aaaak
b1001011110 aaaam
b11001111 aaaaq
b11001111 aaaar

#1365000
b10 aaaak
b1001011111 aaaam
b11010000 aaaaq
b11010000 aaaar

#1370000
b1001100000 aaaam
b11010001 aaaaq
b11010001 aaaar

#1375000
b110 aaaak
b1001100001 aaaam
b11010010 aaaaq
b11010010 aaaar

#1380000
b101 aaaak
b1001100010 aaaam
b11010011 aaaaq
b11010011 aaaar

#1385000
b111 aaaak
b1001100011 aaaam
b11010100 aaaaq
b11010100 aaaar

#1390000
b11 aaaak
b1001100100 aaaam
b11010101 aaaaq
b11010101 aaaar

#1395000
b1 aaaak
b1001100101 aaaam
b11010110 aaaaq
b11010110 aaaar

#1400000
b100 aaaak
b1001100110 aaaam
b11010111 aaaaq
b11010111 aaaar

#1405000
b101 aaaak
b1001100111 aaaam
b11011000 aaaaq
b11011000 aaaar

#1410000
b1001101000 aaaam
b11011001 aaaaq
b11011001 aaaar

#1415000
b11010111 aaaag
b111010111 aaaah
1aaaai
b110 aaaak
b1001101001 aaaam
b11011010 aaaar

#1420000
b11011000 aaaag
b111011000 aaaah
b111 aaaak
b1001101010 aaaam
bZZZZZZZZZZ aaaar
0aaaas

#1425000
b11011001 aaaag
b111011001 aaaah
b101 aaaak
b1001101011 aaaam

#1430000
b11011010 aaaag
b111011010 aaaah
b0 aaaak
b1001101100 aaaam

#1435000
b11011011 aaaag
b111011011 aaaah
b110 aaaak
b1001101101 aaaam

#1440000
b11011100 aaaag
b111011100 aaaah
b0 aaaak
b1001101110 aaaam

#1445000
b11011101 aaaag
b111011101 aaaah
b101 aaaak
b1001101111 aaaam

#1450000
b11011110 aaaag
b111011110 aaaah
b100 aaaak
b1001110000 aaaam

#1455000
b11011111 aaaag
b111011111 aaaah
b111 aaaak
b1001110001 aaaam

#1460000
b11100000 aaaag
b111100000 aaaah
b1001110010 aaaam

#1465000
b11100001 aaaag
b111100001 aaaah
b0 aaaak
b1001110011 aaaam

#1470000
b11100010 aaaag
b111100010 aaaah
b111 aaaak
b1001110100 aaaam

#1475000
b11100011 aaaag
b111100011 aaaah
bZZZZZZZZ aaaak
bZZZZZZZZZZ aaaam
0aaaao

#1480000
b11100100 aaaag
b111100100 aaaah

#1485000
b11100101 aaaag
b111100101 aaaah

#1490000
b11100110 aaaag
b111100110 aaaah

#1495000
b11100111 aaaag
b111100111 aaaah

#1500000
b11101000 aaaag
b111101000 aaaah

#1505000
b11101001 aaaag
b111101001 aaaah

#1510000
b11101010 aaaag
b111101010 aaaah

#1515000
b11101011 aaaag
b111101011 aaaah

#1520000
bZZZZZZZZZZ aaaah
0aaaai

#1525000
b111 aaaaa
b100000001 aaaac
1aaaae

#1530000
b110 aaaaa
b100000010 aaaac

#1535000
b0 aaaaa
b100000011 aaaac

#1540000
b110 aaaaa
b100000100 aaaac

#1545000
b111 aaaaa
b100000101 aaaac

#1550000
b101 aaaaa
b100000110 aaaac

#1555000
b0 aaaaa
b100000111 aaaac

#1560000
b1 aaaaa
b100001000 aaaac

#1565000
b101 aaaaa
b100001001 aaaac

#1570000
b11 aaaaa
b100001010 aaaac
b1010101 aaaaq
b101010101 aaaar
1aaaas

#1575000
b10 aaaaa
b100001011 aaaac
b1010110 aaaaq
b101010110 aaaar

#1580000
bZZZZZZZZ aaaaa
bZZZZZZZZZZ aaaac
0aaaae
b1010111 aaaaq
b101010111 aaaar

#1585000
b1011000 aaaaq
b101011000 aaaar

#1590000
b1011001 aaaaq
b101011001 aaaar

#1595000
b1011010 aaaaq
b101011010 aaaar

#1600000
b1011011 aaaaq
b101011011 aaaar

#1605000
b1011100 aaaaq
b101011100 aaaar

#1610000
b1011101 aaaaq
b101011101 aaaar

#1615000
b1011110 aaaaq
b101011110 aaaar

#1620000
b1011111 aaaaq
b101011111 aaaar

#1625000
b1100000 aaaaq
b101100000 aaaar

#1630000
b1100001 aaaaq
b101100001 aaaar

#1635000
b1100010 aaaaq
b101100010 aaaar

#1640000
b1100011 aaaaq
b101100011 aaaar

#1645000
b1100100 aaaaq
b101100100 aaaar

#1650000
b1100101 aaaaq
b101100101 aaaar

#1655000
b1100110 aaaaq
b101100110 aaaar

#1660000
b1100111 aaaaq
b101100111 aaaar

#1665000
b1101000 aaaaq
b101101000 aaaar

#1670000
b110 aaaaf
b100000001 aaaah
1aaaaj
b1101001 aaaaq
b101101001 aaaar

#1675000
b100000010 aaaah
b1101010 aaaaq
b101101010 aaaar

#1680000
b10 aaaaf
b100000011 aaaah
b101 aaaaq
b101101011 aaaar

#1685000
b111 aaaaf
b100000100 aaaah
b110 aaaaq
b101101100 aaaar

#1690000
b100000101 aaaah
b101101101 aaaar

#1695000
b100 aaaaf
b100000110 aaaah
b111 aaaaq
b101101110 aaaar

#1700000
b10 aaaaf
b100000111 aaaah
b101 aaaaq
b101101111 aaaar

#1705000
b0 aaaaf
b100001000 aaaah
b111 aaaaq
b101110000 aaaar

#1710000
b10 aaaaf
b100001001 aaaah
b101 aaaaq
b101110001 aaaar

#1715000
b101 aaaaf
b100001010 aaaah
b1 aaaaq
b101110010 aaaar

#1720000
b110 aaaaf
b100001011 aaaah
b101 aaaaq
b101110011 aaaar

#1725000
b100 aaaaf
b100001100 aaaah
b111 aaaaq
b101110100 aaaar

#1730000
b0 aaaaf
b100001101 aaaah
b10 aaaaq
b101110101 aaaar

#1735000
b110 aaaaf
b100001110 aaaah
b1110110 aaaaq
b101110110 aaaar

#1740000
b0 aaaaf
b100001111 aaaah
b1110111 aaaaq
b101110111 aaaar

#1745000
b111 aaaaf
b100010000 aaaah
b1111000 aaaaq
b101111000 aaaar

#1750000
b1 aaaaf
b100010001 aaaah
b1111001 aaaaq
b101111001 aaaar

#1755000
b0 aaaaf
b100010010 aaaah
b1111010 aaaaq
b101111010 aaaar

#1760000
b11 aaaaf
b100010011 aaaah
b1111011 aaaaq
b101111011 aaaar

#1765000
b10 aaaaf
b100010100 aaaah
b1111100 aaaaq
b101111100 aaaar

#1770000
b110 aaaaf
b100010101 aaaah
b1111101 aaaaq
b101111101 aaaar

#1775000
bZZZZZZZZ aaaaf
bZZZZZZZZZZ aaaah
0aaaaj
bZZZZZZZZZZ aaaar
0aaaas

#1875000
b100 aaaak
b1000101011 aaaam
1aaaao

#1880000
b1 aaaak
b1000101100 aaaam

#1885000
b0 aaaak
b1000101101 aaaam

#1890000
b11 aaaak
b1000101110 aaaam

#1895000
b101 aaaak
b1000101111 aaaam

#1900000
b1000110000 aaaam

#1905000
b1000110001 aaaam

#1910000
b10 aaaak
b1000110010 aaaam

#1915000
b0 aaaak
b1000110011 aaaam

#1920000
b11 aaaak
b1000110100 aaaam

#1925000
b100 aaaak
b1000110101 aaaam
b10 aaaaq
b1010100110 aaaar
1aaaas

#1930000
b11 aaaak
b1000110110 aaaam
b100 aaaaq
b1010100111 aaaar

#1935000
b10 aaaak
b1000110111 aaaam
b11 aaaaq
b1010101000 aaaar

#1940000
b101 aaaak
b1000111000 aaaam
b1010101001 aaaar

#1945000
b100 aaaak
b1000111001 aaaam
b101 aaaaq
b1010101010 aaaar

#1950000
b1 aaaak
b1000111010 aaaam
b10 aaaaq
b1010101011 aaaar

#1955000
b10 aaaak
b1000111011 aaaam
b0 aaaaq
b1010101100 aaaar

#1960000
b111 aaaak
b1000111100 aaaam
b100 aaaaq
b1010101101 aaaar

#1965000
b1 aaaak
b1000111101 aaaam
b1 aaaaq
b1010101110 aaaar

#1970000
b11 aaaak
b1000111110 aaaam
b11 aaaaq
b1010101111 aaaar

#1975000
b101 aaaak
b1000111111 aaaam
b100 aaaaq
b1010110000 aaaar

#1980000
b101 aaaab
b1100000101 aaaac
1aaaad
b10 aaaak
b1001000000 aaaam
b1010110001 aaaar

#1985000
b110 aaaab
b1100000110 aaaac
b110 aaaak
b1001000001 aaaam
b1010110010 aaaar

#1990000
b111 aaaab
b1100000111 aaaac
b101 aaaak
b1001000010 aaaam
b1010110011 aaaar

#1995000
b1000 aaaab
b1100001000 aaaac
b1 aaaak
b1001000011 aaaam
b1010110100 aaaar

#2000000
b1001 aaaab
b1100001001 aaaac
b10 aaaak
b1001000100 aaaam
b1010110101 aaaar

#2005000
b1010 aaaab
b1100001010 aaaac
b11 aaaak
b1001000101 aaaam
b1010110110 aaaar

#2010000
b1011 aaaab
b1100001011 aaaac
b10 aaaak
b1001000110 aaaam
b1010110111 aaaar

#2015000
b1100 aaaab
b1100001100 aaaac
b11 aaaak
b1001000111 aaaam
b1010111000 aaaar

#2020000
b1101 aaaab
b1100001101 aaaac
b111 aaaak
b1001001000 aaaam
b1010111001 aaaar

#2025000
b1110 aaaab
b1100001110 aaaac
b1001001001 aaaam
b1010111010 aaaar

#2030000
b1111 aaaab
b1100001111 aaaac
bZZZZZZZZ aaaak
bZZZZZZZZZZ aaaam
0aaaao
b1010111011 aaaar

#2035000
bZZZZZZZZZZ aaaac
0aaaad
b10111100 aaaaq
b1010111100 aaaar

#2040000
b10111101 aaaaq
b1010111101 aaaar

#2045000
b10111110 aaaaq
b1010111110 aaaar

#2050000
b10111111 aaaaq
b1010111111 aaaar

#2055000
b11000000 aaaaq
b1011000000 aaaar

#2060000
b11000001 aaaaq
b1011000001 aaaar

#2065000
b11000010 aaaaq
b1011000010 aaaar

#2070000
b11000011 aaaaq
b1011000011 aaaar

#2075000
b11000100 aaaaq
b1011000100 aaaar

#2080000
b11000101 aaaaq
b1011000101 aaaar

#2085000
b11000110 aaaaq
b1011000110 aaaar

#2090000
b11000111 aaaaq
b1011000111 aaaar

#2095000
b11001000 aaaaq
b1011001000 aaaar

#2100000
b11001001 aaaaq
b1011001001 aaaar

#2105000
b11001010 aaaaq
b1011001010 aaaar

#2110000
b11001011 aaaaq
b1011001011 aaaar

#2115000
b11001100 aaaaq
b1011001100 aaaar

#2120000
b11001101 aaaaq
b1011001101 aaaar

#2125000
b11001110 aaaaq
b1011001110 aaaar

#2130000
bZZZZZZZZZZ aaaar
0aaaas

#2175000
b11 aaaaf
b101101100 aaaah
1aaaaj

#2180000
b111 aaaaf
b101101101 aaaah

#2185000
b100 aaaaf
b101101110 aaaah

#2190000
b10 aaaaf
b101101111 aaaah

#2195000
b110 aaaaf
b101110000 aaaah

#2200000
b101110001 aaaah

#2205000
b0 aaaaf
b101110010 aaaah

#2210000
b101110011 aaaah

#2215000
b11 aaaaf
b101110100 aaaah

#2220000
b101110101 aaaah

#2225000
b1 aaaaf
b101110110 aaaah

#2230000
b0 aaaaf
b101110111 aaaah

#2235000
b10 aaaaf
b101111000 aaaah

#2240000
b0 aaaaf
b101111001 aaaah

#2245000
b10 aaaaf
b101111010 aaaah

#2250000
b101111011 aaaah

#2255000
b101 aaaaf
b101111100 aaaah

#2260000
b0 aaaaf
b101111101 aaaah

#2265000
b110 aaaaf
b101111110 aaaah

#2270000
b101 aaaaf
b101111111 aaaah

#2275000
b110000000 aaaah

#2280000
b11 aaaaa
b11110011 aaaac
1aaaae
bZZZZZZZZ aaaaf
bZZZZZZZZZZ aaaah
0aaaaj
b11 aaaaq
b1100100101 aaaar
1aaaas

#2285000
b1 aaaaa
b11110100 aaaac
b110 aaaaq
b1100100110 aaaar

#2290000
b11110101 aaaac
b1100100111 aaaar

#2295000
b11 aaaaa
b11110110 aaaac
b111 aaaaq
b1100101000 aaaar

#2300000
b111 aaaaa
b11110111 aaaac
b0 aaaaq
b1100101001 aaaar

#2305000
b10 aaaaa
b11111000 aaaac
b111 aaaaq
b1100101010 aaaar

#2310000
b0 aaaaa
b11111001 aaaac
b110 aaaaq
b1100101011 aaaar

#2315000
b111 aaaaa
b11111010 aaaac
b1 aaaaq
b1100101100 aaaar

#2320000
b0 aaaaa
b11111011 aaaac
b11 aaaaq
b1100101101 aaaar

#2325000
b11111100 aaaac
b10 aaaaq
b1100101110 aaaar

#2330000
b10 aaaaa
b11111101 aaaac
b1100101111 aaaar

#2335000
bZZZZZZZZ aaaaa
bZZZZZZZZZZ aaaac
0aaaae
b101 aaaaq
b1100110000 aaaar

#2340000
b110 aaaaq
b1100110001 aaaar

#2345000
b10 aaaaq
b1100110010 aaaar

#2350000
b1 aaaaq
b1100110011 aaaar

#2355000
b100 aaaaq
b1100110100 aaaar

#2360000
b0 aaaaq
b1100110101 aaaar

#2365000
b1 aaaaq
b1100110110 aaaar

#2370000
b11 aaaaq
b1100110111 aaaar

#2375000
b10 aaaaq
b1100111000 aaaar

#2380000
b1 aaaaq
b1100111001 aaaar

#2385000
b111 aaaaq
b1100111010 aaaar

#2390000
b1 aaaaq
b1100111011 aaaar

#2395000
b110 aaaaq
b1100111100 aaaar

#2400000
b0 aaaaq
b1100111101 aaaar

#2405000
b11 aaaaq
b1100111110 aaaar

#2410000
b111111 aaaaq
b1100111111 aaaar

#2415000
b1000000 aaaaq
b1101000000 aaaar

#2420000
b1000001 aaaaq
b1101000001 aaaar

#2425000
b1000010 aaaaq
b1101000010 aaaar

#2430000
b1 aaaak
b110110101 aaaam
1aaaao
b1000011 aaaaq
b1101000011 aaaar

#2435000
b111 aaaak
b110110110 aaaam
b1000100 aaaaq
b1101000100 aaaar

#2440000
b110 aaaak
b110110111 aaaam
b1000101 aaaaq
b1101000101 aaaar

#2445000
b10 aaaak
b110111000 aaaam
b1000110 aaaaq
b1101000110 aaaar

#2450000
b0 aaaak
b110111001 aaaam
b1000111 aaaaq
b1101000111 aaaar

#2455000
b111 aaaak
b110111010 aaaam
b1001000 aaaaq
b1101001000 aaaar

#2460000
b10 aaaak
b110111011 aaaam
b1001001 aaaaq
b1101001001 aaaar

#2465000
b100 aaaak
b110111100 aaaam
b1001010 aaaaq
b1101001010 aaaar

#2470000
b10 aaaak
b110111101 aaaam
b1001011 aaaaq
b1101001011 aaaar

#2475000
b0 aaaak
b110111110 aaaam
b1001100 aaaaq
b1101001100 aaaar

#2480000
b101 aaaak
b110111111 aaaam
b1001101 aaaaq
b1101001101 aaaar

#2485000
b0 aaaak
b111000000 aaaam
bZZZZZZZZZZ aaaar
0aaaas

#2490000
b110 aaaak
b111000001 aaaam

#2495000
b11 aaaak
b111000010 aaaam

#2500000
b111000011 aaaam

#2505000
b0 aaaak
b111000100 aaaam

#2510000
b111000101 aaaam

#2515000
b101 aaaak
b111000110 aaaam

#2520000
b111000111 aaaam

#2525000
b10 aaaak
b111001000 aaaam

#2530000
b110 aaaak
b111001001 aaaam

#2535000
b100 aaaak
b111001010 aaaam

#2540000
b10 aaaak
b111001011 aaaam

#2545000
b111 aaaak
b111001100 aaaam

