multiexchanger/dataExchange.vcd
$date
     May 01, 2017       19:46:10
$end

$version
 SystemC 2.3.1-Accellera --- Feb 19 2017 21:56:29
$end

$timescale
     1 ps
$end

$scope module SystemC $end
$var wire    8  aaaaa  inb1 [7:0]  $end
$var wire    8  aaaab  oub1 [7:0]  $end
$var wire   10  aaaac  adb1 [9:0]  $end
$var wire    1  aaaad  rd_en1       $end
$var wire    1  aaaae  wr_en1       $end
$var wire    8  aaaaf  inb2 [7:0]  $end
$var wire    8  aaaag  oub2 [7:0]  $end
$var wire   10  aaaah  adb2 [9:0]  $end
$var wire    1  aaaai  rd_en2       $end
$var wire    1  aaaaj  wr_en2       $end
$var wire    8  aaaak  inb3 [7:0]  $end
$var wire    8  aaaal  oub3 [7:0]  $end
$var wire   10  aaaam  adb3 [9:0]  $end
$var wire    1  aaaan  rd_en3       $end
$var wire    1  aaaao  wr_en3       $end
$var wire    8  aaaap  inb4 [7:0]  $end
$var wire    8  aaaaq  oub4 [7:0]  $end
$var wire   10  aaaar  adb4 [9:0]  $end
$var wire    1  aaaas  rd_en4       $end
$var wire    1  aaaat  wr_en4       $end
$upscope $end
$enddefinitions  $end

$comment
All initial values are dumped below at time 0 sec = 0 timescale units.
$end

$dumpvars
bXXXXXXXX aaaaa
bXXXXXXXX aaaab
bXXXXXXXXXX aaaac
xaaaad
xaaaae
bXXXXXXXX aaaaf
bXXXXXXXX aaaag
bXXXXXXXXXX aaaah
xaaaai
xaaaaj
bXXXXXXXX aaaak
bXXXXXXXX aaaal
bXXXXXXXXXX aaaam
xaaaan
xaaaao
bXXXXXXXX aaaap
bXXXXXXXX aaaaq
bXXXXXXXXXX aaaar
xaaaas
xaaaat
$end

#150000
b11 aaaaa
b10010 aaaac
0aaaad
1aaaae
b11111100 aaaag
b111111100 aaaah
1aaaai
0aaaaj
b111010001 aaaar
1aaaas
0aaaat

#155000
b1 aaaaa
b10011 aaaac
b11111101 aaaag
b111111101 aaaah
b111010010 aaaar

#160000
b0 aaaaa
b10100 aaaac
b11111110 aaaag
b111111110 aaaah
b111010011 aaaar

#165000
b11 aaaaa
b10101 aaaac
b11111111 aaaag
b111111111 aaaah
b111010100 aaaar

#170000
b10 aaaaa
b10110 aaaac
b0 aaaag
b1000000000 aaaah
b111010101 aaaar

#175000
b0 aaaaa
b10111 aaaac
b1 aaaag
b1000000001 aaaah
b111010110 aaaar

#180000
b1 aaaaa
b11000 aaaac
b10 aaaag
b1000000010 aaaah
b111010111 aaaar

#185000
b11 aaaaa
b11001 aaaac
b11 aaaag
b1000000011 aaaah
b111011000 aaaar

#190000
b101 aaaaa
b11010 aaaac
b100 aaaag
b1000000100 aaaah
b111011001 aaaar

#195000
b11 aaaaa
b11011 aaaac
b101 aaaag
b1000000101 aaaah
b111011010 aaaar

#200000
b0 aaaaa
b11100 aaaac
b110 aaaag
b1000000110 aaaah
b111011011 aaaar

#205000
bZZZZZZZZ aaaaa
bZZZZZZZZZZ aaaac
0aaaae
b111 aaaag
b1000000111 aaaah
b100 aaaak
b1111100111 aaaam
0aaaan
1aaaao
b111011100 aaaar

#210000
b1000 aaaag
b1000001000 aaaah
b10 aaaak
b1111101000 aaaam
b111011101 aaaar

#215000
b1001 aaaag
b1000001001 aaaah
b11 aaaak
b1111101001 aaaam
b111011110 aaaar

#220000
b1010 aaaag
b1000001010 aaaah
b0 aaaak
b1111101010 aaaam
b111011111 aaaar

#225000
b1011 aaaag
b1000001011 aaaah
b11 aaaak
b1111101011 aaaam
b111100000 aaaar

#230000
b1100 aaaag
b1000001100 aaaah
b101 aaaak
b1111101100 aaaam
b111100001 aaaar

#235000
b1101 aaaag
b1000001101 aaaah
b0 aaaak
b1111101101 aaaam
b111100010 aaaar

#240000
b1110 aaaag
b1000001110 aaaah
b1111101110 aaaam
b111100011 aaaar

#245000
b1111 aaaag
b1000001111 aaaah
b100 aaaak
b1111101111 aaaam
b111100100 aaaar

#250000
b10000 aaaag
b1000010000 aaaah
b1 aaaak
b1111110000 aaaam
b111100101 aaaar

#255000
bZZZZZZZZ aaaaf
bZZZZZZZZZZ aaaah
0aaaai
b11 aaaak
b1111110001 aaaam
b11100110 aaaaq
b111100110 aaaar

#260000
b1111110010 aaaam
b11100111 aaaaq
b111100111 aaaar

#265000
b110 aaaak
b1111110011 aaaam
b11101000 aaaaq
b111101000 aaaar

#270000
b100 aaaak
b1111110100 aaaam
b11101001 aaaaq
b111101001 aaaar

#275000
b111 aaaak
b1111110101 aaaam
b11101010 aaaaq
b111101010 aaaar

#280000
b0 aaaak
b1111110110 aaaam
b11101011 aaaaq
b111101011 aaaar

#285000
b1 aaaak
b1111110111 aaaam
b11101100 aaaaq
b111101100 aaaar

#290000
b101 aaaak
b1111111000 aaaam
b11101101 aaaaq
b111101101 aaaar

#295000
b111 aaaak
b1111111001 aaaam
b11101110 aaaaq
b111101110 aaaar

#300000
b1111111010 aaaam
b11101111 aaaaq
b111101111 aaaar

#305000
b100 aaaak
b1111111011 aaaam
b11110000 aaaaq
b111110000 aaaar

#310000
b110 aaaak
b1111111100 aaaam
b11110001 aaaaq
b111110001 aaaar

#315000
b10 aaaak
b1111111101 aaaam
b11110010 aaaaq
b111110010 aaaar

#320000
b111 aaaak
b1111111110 aaaam
b11110011 aaaaq
b111110011 aaaar

#325000
b0 aaaak
b1111111111 aaaam
b11110100 aaaaq
b111110100 aaaar

#330000
b110 aaaak
b0 aaaam
b11110101 aaaaq
b111110101 aaaar

#335000
b10 aaaak
b1 aaaam
b11110110 aaaaq
b111110110 aaaar

#340000
b11 aaaak
b10 aaaam
b11110111 aaaaq
b111110111 aaaar

#345000
b101 aaaak
b11 aaaam
b11111000 aaaaq
b111111000 aaaar

#350000
b100 aaaak
b100 aaaam
b11111001 aaaaq
b111111001 aaaar

#355000
b111 aaaak
b101 aaaam
bZZZZZZZZ aaaap
bZZZZZZZZZZ aaaar
0aaaas

#360000
bZZZZZZZZ aaaak
bZZZZZZZZZZ aaaam
0aaaao

#405000
b10 aaaaf
b11101110 aaaah
1aaaaj

#410000
b11101111 aaaah

#415000
b110 aaaaf
b11110000 aaaah

#420000
b10 aaaaf
b11110001 aaaah

#425000
b0 aaaaf
b11110010 aaaah

#430000
b1 aaaaf
b11110011 aaaah

#435000
b101 aaaaf
b11110100 aaaah

#440000
b10 aaaaf
b11110101 aaaah

#445000
b11110110 aaaah

#450000
b11 aaaaf
b11110111 aaaah

#455000
b10 aaaaf
b11111000 aaaah

#460000
b110 aaaaf
b11111001 aaaah

#465000
b101 aaaaf
b11111010 aaaah

#470000
b111 aaaaf
b11111011 aaaah

#475000
b10 aaaaf
b11111100 aaaah

#480000
b1 aaaaf
b11111101 aaaah

#485000
b111 aaaaf
b11111110 aaaah

#490000
b110 aaaaf
b11111111 aaaah

#495000
b11 aaaaf
b100000000 aaaah

#500000
b101 aaaaf
b100000001 aaaah

#505000
b10 aaaaf
b100000010 aaaah

#510000
bZZZZZZZZ aaaaf
bZZZZZZZZZZ aaaah
0aaaaj
b101 aaaap
b1010111 aaaar
1aaaat

#515000
b110 aaaap
b1011000 aaaar

#520000
b0 aaaap
b1011001 aaaar

#525000
b111 aaaap
b1011010 aaaar

#530000
b1011011 aaaar

#535000
b110 aaaap
b1011100 aaaar

#540000
b100 aaaap
b1011101 aaaar

#545000
b0 aaaap
b1011110 aaaar

#550000
b101 aaaap
b1011111 aaaar

#555000
b100 aaaap
b1100000 aaaar

#560000
b10 aaaap
b1100001 aaaar

#565000
b11 aaaap
b1100010 aaaar

#570000
b1 aaaap
b1100011 aaaar

#575000
b10 aaaap
b1100100 aaaar

#580000
b0 aaaap
b1100101 aaaar

#585000
b1 aaaap
b1100110 aaaar

#590000
b111 aaaap
b1100111 aaaar

#595000
b0 aaaap
b1101000 aaaar

#600000
b110 aaaap
b1101001 aaaar

#605000
b0 aaaap
b1101010 aaaar

#610000
b11 aaaap
b1101011 aaaar

#615000
b0 aaaap
b1101100 aaaar

#620000
b110 aaaap
b1101101 aaaar

#625000
b10 aaaap
b1101110 aaaar

#630000
b1 aaaap
b1101111 aaaar

#635000
b10 aaaap
b1110000 aaaar

#640000
b101 aaaap
b1110001 aaaar

#645000
b110 aaaap
b1110010 aaaar

#650000
b100 aaaap
b1110011 aaaar

#655000
b1110100 aaaar

#660000
b10 aaaap
b1110101 aaaar

#665000
b11 aaaap
b1110110 aaaar

#670000
b1110111 aaaar

#675000
b100 aaaap
b1111000 aaaar

#680000
b110 aaaap
b1111001 aaaar

#685000
b10 aaaap
b1111010 aaaar

#690000
b1111011 aaaar

#695000
b1 aaaap
b1111100 aaaar

#700000
b101 aaaap
b1111101 aaaar

#705000
b100 aaaap
b1111110 aaaar

#710000
b101 aaaap
b1111111 aaaar

#715000
bZZZZZZZZ aaaap
bZZZZZZZZZZ aaaar
0aaaat

#855000
b1 aaaab
b11111101 aaaac
1aaaad

#860000
b111 aaaab
b11111110 aaaac

#865000
b110 aaaab
b11111111 aaaac

#870000
b11 aaaab
b100000000 aaaac

#875000
b101 aaaab
b100000001 aaaac

#880000
b10 aaaab
b100000010 aaaac

#885000
b11 aaaab
b100000011 aaaac

#890000
b100 aaaab
b100000100 aaaac

#895000
b101 aaaab
b100000101 aaaac

#900000
b110 aaaab
b100000110 aaaac

#905000
b111 aaaab
b100000111 aaaac

#910000
bZZZZZZZZZZ aaaac
0aaaad

#1010000
b10010100 aaaal
b1110010100 aaaam
1aaaan

#1015000
b10010101 aaaal
b1110010101 aaaam

#1020000
b10010110 aaaal
b1110010110 aaaam

#1025000
b10010111 aaaal
b1110010111 aaaam

#1030000
b10011000 aaaal
b1110011000 aaaam

#1035000
b10011001 aaaal
b1110011001 aaaam

#1040000
b10011010 aaaal
b1110011010 aaaam

#1045000
b10011011 aaaal
b1110011011 aaaam

#1050000
b10011100 aaaal
b1110011100 aaaam

#1055000
b10011101 aaaal
b1110011101 aaaam

#1060000
b110 aaaaa
b10010011 aaaac
1aaaae
b10011110 aaaal
b1110011110 aaaam

#1065000
b11 aaaaa
b10010100 aaaac
b10011111 aaaal
b1110011111 aaaam

#1070000
b100 aaaaa
b10010101 aaaac
b10100000 aaaal
b1110100000 aaaam

#1075000
b0 aaaaa
b10010110 aaaac
b10100001 aaaal
b1110100001 aaaam

#1080000
b100 aaaaa
b10010111 aaaac
b10100010 aaaal
b1110100010 aaaam

#1085000
b1 aaaaa
b10011000 aaaac
b10100011 aaaal
b1110100011 aaaam

#1090000
b100 aaaaa
b10011001 aaaac
b10100100 aaaal
b1110100100 aaaam

#1095000
b10 aaaaa
b10011010 aaaac
b10100101 aaaal
b1110100101 aaaam

#1100000
b100 aaaaa
b10011011 aaaac
b10100110 aaaal
b1110100110 aaaam

#1105000
b110 aaaaa
b10011100 aaaac
b10100111 aaaal
b1110100111 aaaam

#1110000
b101 aaaaa
b10011101 aaaac
b10101000 aaaal
b1110101000 aaaam

#1115000
bZZZZZZZZ aaaaa
bZZZZZZZZZZ aaaac
0aaaae
b10101001 aaaal
b1110101001 aaaam

#1120000
b10101010 aaaal
b1110101010 aaaam

#1125000
b10101011 aaaal
b1110101011 aaaam

#1130000
b10101100 aaaal
b1110101100 aaaam

#1135000
b10101101 aaaal
b1110101101 aaaam

#1140000
b10101110 aaaal
b1110101110 aaaam

#1145000
b10101111 aaaal
b1110101111 aaaam

#1150000
b10110000 aaaal
b1110110000 aaaam

#1155000
b10110001 aaaal
b1110110001 aaaam

#1160000
b10101011 aaaag
b10101011 aaaah
1aaaai
b1110110010 aaaam

#1165000
b10101100 aaaag
b10101100 aaaah
bZZZZZZZZZZ aaaam
0aaaan

#1170000
b10101101 aaaag
b10101101 aaaah

#1175000
b10101110 aaaag
b10101110 aaaah

#1180000
b10101111 aaaag
b10101111 aaaah

#1185000
b10110000 aaaag
b10110000 aaaah

#1190000
b10110001 aaaag
b10110001 aaaah

#1195000
b10110010 aaaag
b10110010 aaaah

#1200000
b10110011 aaaag
b10110011 aaaah

#1205000
b10110100 aaaag
b10110100 aaaah

#1210000
b10110101 aaaag
b10110101 aaaah

#1215000
b10110110 aaaag
b10110110 aaaah

#1220000
b10110111 aaaag
b10110111 aaaah

#1225000
b10111000 aaaag
b10111000 aaaah

#1230000
b10111001 aaaag
b10111001 aaaah

#1235000
b10111010 aaaag
b10111010 aaaah

#1240000
b10111011 aaaag
b10111011 aaaah

#1245000
b10111100 aaaag
b10111100 aaaah

#1250000
b10111101 aaaag
b10111101 aaaah

#1255000
b10111110 aaaag
b10111110 aaaah

#1260000
b10111111 aaaag
b10111111 aaaah

#1265000
bZZZZZZZZZZ aaaah
0aaaai

#1315000
b1010001 aaaal
b101010001 aaaam
1aaaan

#1320000
b1010010 aaaal
b101010010 aaaam

#1325000
b1010011 aaaal
b101010011 aaaam

#1330000
b1010100 aaaal
b101010100 aaaam

#1335000
b1010101 aaaal
b101010101 aaaam

#1340000
b1010110 aaaal
b101010110 aaaam

#1345000
b1010111 aaaal
b101010111 aaaam

#1350000
b1011000 aaaal
b101011000 aaaam

#1355000
b1011001 aaaal
b101011001 aaaam

#1360000
b1011010 aaaal
b101011010 aaaam

#1365000
b1011011 aaaal
b101011011 aaaam
b111011100 aaaar
1aaaas

#1370000
b1011100 aaaal
b101011100 aaaam
b111011101 aaaar

#1375000
b1011101 aaaal
b101011101 aaaam
b111011110 aaaar

#1380000
b1011110 aaaal
b101011110 aaaam
b111011111 aaaar

#1385000
b1011111 aaaal
b101011111 aaaam
b111100000 aaaar

#1390000
b1100000 aaaal
b101100000 aaaam
b111100001 aaaar

#1395000
b1100001 aaaal
b101100001 aaaam
b111100010 aaaar

#1400000
b1100010 aaaal
b101100010 aaaam
b111100011 aaaar

#1405000
b1100011 aaaal
b101100011 aaaam
b111100100 aaaar

#1410000
b1100100 aaaal
b101100100 aaaam
b111100101 aaaar

#1415000
b100 aaaaf
b1100111011 aaaah
1aaaaj
b1100101 aaaal
b101100101 aaaam
b111100110 aaaar

#1420000
b101 aaaaf
b1100111100 aaaah
b1100110 aaaal
b101100110 aaaam
b111100111 aaaar

#1425000
b10 aaaaf
b1100111101 aaaah
b1100111 aaaal
b101100111 aaaam
b111101000 aaaar

#1430000
b1100111110 aaaah
b1101000 aaaal
b101101000 aaaam
b111101001 aaaar

#1435000
b111 aaaaf
b1100111111 aaaah
b1101001 aaaal
b101101001 aaaam
b111101010 aaaar

#1440000
b110 aaaaf
b1101000000 aaaah
b1101010 aaaal
b101101010 aaaam
b111101011 aaaar

#1445000
b0 aaaaf
b1101000001 aaaah
b1101011 aaaal
b101101011 aaaam
b111101100 aaaar

#1450000
b111 aaaaf
b1101000010 aaaah
b1101100 aaaal
b101101100 aaaam
b111101101 aaaar

#1455000
b11 aaaaf
b1101000011 aaaah
b1101101 aaaal
b101101101 aaaam
b111101110 aaaar

#1460000
b1101000100 aaaah
b1101110 aaaal
b101101110 aaaam
b111101111 aaaar

#1465000
b1101000101 aaaah
b1101111 aaaal
b101101111 aaaam
b111110000 aaaar

#1470000
b1101000110 aaaah
bZZZZZZZZZZ aaaam
0aaaan
b11110001 aaaaq
b111110001 aaaar

#1475000
b100 aaaaf
b1101000111 aaaah
b11110010 aaaaq
b111110010 aaaar

#1480000
b110 aaaaf
b1101001000 aaaah
b11110011 aaaaq
b111110011 aaaar

#1485000
b101 aaaaf
b1101001001 aaaah
b11110100 aaaaq
b111110100 aaaar

#1490000
b1101001010 aaaah
b11110101 aaaaq
b111110101 aaaar

#1495000
b11 aaaaf
b1101001011 aaaah
b11110110 aaaaq
b111110110 aaaar

#1500000
b0 aaaaf
b1101001100 aaaah
b11110111 aaaaq
b111110111 aaaar

#1505000
b1 aaaaf
b1101001101 aaaah
b11111000 aaaaq
b111111000 aaaar

#1510000
b110 aaaaf
b1101001110 aaaah
b11111001 aaaaq
b111111001 aaaar

#1515000
b101 aaaaf
b1101001111 aaaah
b11111010 aaaaq
b111111010 aaaar

#1520000
bZZZZZZZZ aaaaf
bZZZZZZZZZZ aaaah
0aaaaj
b11111011 aaaaq
b111111011 aaaar

#1525000
b11111100 aaaaq
b111111100 aaaar

#1530000
b11111101 aaaaq
b111111101 aaaar

#1535000
b11111110 aaaaq
b111111110 aaaar

#1540000
b11111111 aaaaq
b111111111 aaaar

#1545000
b0 aaaaq
b1000000000 aaaar

#1550000
b1 aaaaq
b1000000001 aaaar

#1555000
b10 aaaaq
b1000000010 aaaar

#1560000
b11 aaaaq
b1000000011 aaaar

#1565000
b100 aaaaq
b1000000100 aaaar

#1570000
bZZZZZZZZZZ aaaar
0aaaas

#1620000
b1000101 aaaal
b1001000101 aaaam
1aaaan

#1625000
b1000110 aaaal
b1001000110 aaaam

#1630000
b1000111 aaaal
b1001000111 aaaam

#1635000
b1001000 aaaal
b1001001000 aaaam

#1640000
b1001001 aaaal
b1001001001 aaaam

#1645000
b1001010 aaaal
b1001001010 aaaam

#1650000
b1001011 aaaal
b1001001011 aaaam

#1655000
b1001100 aaaal
b1001001100 aaaam

#1660000
b1001101 aaaal
b1001001101 aaaam

#1665000
b1001110 aaaal
b1001001110 aaaam

#1670000
b1001111 aaaal
b1001001111 aaaam

#1675000
b1010000 aaaal
b1001010000 aaaam

#1680000
b1010001 aaaal
b1001010001 aaaam

#1685000
b1010010 aaaal
b1001010010 aaaam

#1690000
b1010011 aaaal
b1001010011 aaaam

#1695000
b1010100 aaaal
b1001010100 aaaam

#1700000
b1010101 aaaal
b1001010101 aaaam

#1705000
b1010110 aaaal
b1001010110 aaaam

#1710000
b1010111 aaaal
b1001010111 aaaam

#1715000
b1011000 aaaal
b1001011000 aaaam

#1720000
b1011001 aaaal
b1001011001 aaaam
b11010010 aaaar
1aaaas

#1725000
b1011010 aaaal
b1001011010 aaaam
b11010011 aaaar

#1730000
b1011011 aaaal
b1001011011 aaaam
b11010100 aaaar

#1735000
b1011100 aaaal
b1001011100 aaaam
b11010101 aaaar

#1740000
b1011101 aaaal
b1001011101 aaaam
b11010110 aaaar

#1745000
b1011110 aaaal
b1001011110 aaaam
b11010111 aaaar

#1750000
b1011111 aaaal
b1001011111 aaaam
b11011000 aaaar

#1755000
b1100000 aaaal
b1001100000 aaaam
b11011001 aaaar

#1760000
b1100001 aaaal
b1001100001 aaaam
b11011010 aaaar

#1765000
b11011101 aaaab
b1111011101 aaaac
1aaaad
b1001100010 aaaam
b11011011 aaaar

#1770000
b11011110 aaaab
b1111011110 aaaac
b1001100011 aaaam
b11011100 aaaar

#1775000
b11011111 aaaab
b1111011111 aaaac
bZZZZZZZZZZ aaaam
0aaaan
b11011101 aaaar

#1780000
b11100000 aaaab
b1111100000 aaaac
b11011110 aaaar

#1785000
b11100001 aaaab
b1111100001 aaaac
b11011111 aaaar

#1790000
b11100010 aaaab
b1111100010 aaaac
b11100000 aaaar

#1795000
b11100011 aaaab
b1111100011 aaaac
b11100001 aaaar

#1800000
b11100100 aaaab
b1111100100 aaaac
b11100010 aaaar

#1805000
b11100101 aaaab
b1111100101 aaaac
b11100011 aaaar

#1810000
b11100110 aaaab
b1111100110 aaaac
b11100100 aaaar

#1815000
b100 aaaab
b1111100111 aaaac
b11100101 aaaar

#1820000
bZZZZZZZZZZ aaaac
0aaaad
b11100110 aaaaq
b11100110 aaaar

#1825000
b11100111 aaaaq
b11100111 aaaar

#1830000
b11101000 aaaaq
b11101000 aaaar

#1835000
b11101001 aaaaq
b11101001 aaaar

#1840000
b11101010 aaaaq
b11101010 aaaar

#1845000
b11101011 aaaaq
b11101011 aaaar

#1850000
b11101100 aaaaq
b11101100 aaaar

#1855000
b11101101 aaaaq
b11101101 aaaar

#1860000
b10 aaaaq
b11101110 aaaar

#1865000
b11101111 aaaar

#1870000
b110 aaaaq
b11110000 aaaar

#1875000
b10 aaaaq
b11110001 aaaar

#1880000
b0 aaaaq
b11110010 aaaar

#1885000
b1 aaaaq
b11110011 aaaar

#1890000
b101 aaaaq
b11110100 aaaar

#1895000
b10 aaaaq
b11110101 aaaar

#1900000
b11110110 aaaar

#1905000
b11 aaaaq
b11110111 aaaar

#1910000
b10 aaaaq
b11111000 aaaar

#1915000
b110 aaaaq
b11111001 aaaar

#1920000
b101 aaaaq
b11111010 aaaar

#1925000
b10 aaaak
b1011101110 aaaam
1aaaao
bZZZZZZZZZZ aaaar
0aaaas

#1930000
b1 aaaak
b1011101111 aaaam

#1935000
b101 aaaak
b1011110000 aaaam

#1940000
b1 aaaak
b1011110001 aaaam

#1945000
b1011110010 aaaam

#1950000
b10 aaaak
b1011110011 aaaam

#1955000
b11 aaaak
b1011110100 aaaam

#1960000
b100 aaaak
b1011110101 aaaam

#1965000
b111 aaaak
b1011110110 aaaam

#1970000
b1 aaaab
b1111110000 aaaac
1aaaad
b10 aaaak
b1011110111 aaaam

#1975000
b11 aaaab
b1111110001 aaaac
b101 aaaak
b1011111000 aaaam

#1980000
b1111110010 aaaac
b111 aaaak
b1011111001 aaaam

#1985000
b110 aaaab
b1111110011 aaaac
b1011111010 aaaam

#1990000
b100 aaaab
b1111110100 aaaac
b1 aaaak
b1011111011 aaaam

#1995000
b111 aaaab
b1111110101 aaaac
b10 aaaak
b1011111100 aaaam

#2000000
b0 aaaab
b1111110110 aaaac
b1 aaaak
b1011111101 aaaam

#2005000
b1 aaaab
b1111110111 aaaac
b10 aaaak
b1011111110 aaaam

#2010000
b101 aaaab
b1111111000 aaaac
b11 aaaak
b1011111111 aaaam

#2015000
b111 aaaab
b1111111001 aaaac
b111 aaaak
b1100000000 aaaam

#2020000
b1111111010 aaaac
b110 aaaak
b1100000001 aaaam

#2025000
bZZZZZZZZZZ aaaac
0aaaad
b1100000010 aaaam

#2030000
b10 aaaak
b1100000011 aaaam

#2035000
b1 aaaak
b1100000100 aaaam

#2040000
b1100000101 aaaam

#2045000
b110 aaaak
b1100000110 aaaam

#2050000
b0 aaaak
b1100000111 aaaam

#2055000
b101 aaaak
b1100001000 aaaam

#2060000
b100 aaaak
b1100001001 aaaam

#2065000
b10 aaaak
b1100001010 aaaam

#2070000
b111 aaaak
b1100001011 aaaam

#2075000
b101 aaaak
b1100001100 aaaam

#2080000
bZZZZZZZZ aaaak
bZZZZZZZZZZ aaaam
0aaaao
b110 aaaap
b1011110011 aaaar
1aaaat

#2085000
b111 aaaap
b1011110100 aaaar

#2090000
b11 aaaap
b1011110101 aaaar

#2095000
b110 aaaap
b1011110110 aaaar

